% This file was created by matplotlib v0.1.0.
% Copyright (c) 2010--2014, Nico Schlömer <nico.schloemer@gmail.com>
% All rights reserved.
% 
% The lastest updates can be retrieved from
% 
% https://github.com/nschloe/matplotlib2tikz
% 
% where you can also submit bug reports and leavecomments.
% 
\begin{tikzpicture}

\draw[draw=white,fill=lightgray] (axis cs:0,0) rectangle (axis cs:1,1);
\begin{groupplot}[group style={group size=4 by 4}]
\nextgroupplot[
xmin=0.85, xmax=0.95,
ymin=0, ymax=501,
axis on top
]
\addplot [red]
coordinates {
(0.9,0)
(0.9,501)

};
\draw[draw=black,fill=gray] (axis cs:0.865111292436529,0) rectangle (axis cs:0.871581023959508,3);
\draw[draw=black,fill=gray] (axis cs:0.871581023959508,0) rectangle (axis cs:0.878050755482487,34);
\draw[draw=black,fill=gray] (axis cs:0.878050755482487,0) rectangle (axis cs:0.884520487005466,87);
\draw[draw=black,fill=gray] (axis cs:0.884520487005466,0) rectangle (axis cs:0.890990218528445,138);
\draw[draw=black,fill=gray] (axis cs:0.890990218528445,0) rectangle (axis cs:0.897459950051424,101);
\draw[draw=black,fill=gray] (axis cs:0.897459950051424,0) rectangle (axis cs:0.903929681574403,71);
\draw[draw=black,fill=gray] (axis cs:0.903929681574403,0) rectangle (axis cs:0.910399413097382,41);
\draw[draw=black,fill=gray] (axis cs:0.910399413097382,0) rectangle (axis cs:0.916869144620361,16);
\draw[draw=black,fill=gray] (axis cs:0.916869144620361,0) rectangle (axis cs:0.92333887614334,6);
\draw[draw=black,fill=gray] (axis cs:0.92333887614334,0) rectangle (axis cs:0.929808607666319,4);
\draw[fill=white,draw opacity=0] (axis cs:0,0) rectangle (axis cs:1,1);
\path [draw=black, fill opacity=0] (axis cs:0.85,1)--(axis cs:0.95,1);

\path [draw=black, fill opacity=0] (axis cs:0,0)--(axis cs:0,501);

\path [draw=black, fill opacity=0] (axis cs:1,0)--(axis cs:1,501);

\path [draw=black, fill opacity=0] (axis cs:0.85,0)--(axis cs:0.95,0);

\nextgroupplot[
xmin=0.6, xmax=1,
ymin=0, ymax=501,
axis on top
]
\addplot [red]
coordinates {
(0.7,0)
(0.7,501)

};
\draw[draw=black,fill=gray] (axis cs:0.623739418610017,0) rectangle (axis cs:0.651723481818091,6);
\draw[draw=black,fill=gray] (axis cs:0.651723481818091,0) rectangle (axis cs:0.679707545026164,19);
\draw[draw=black,fill=gray] (axis cs:0.679707545026164,0) rectangle (axis cs:0.707691608234238,49);
\draw[draw=black,fill=gray] (axis cs:0.707691608234238,0) rectangle (axis cs:0.735675671442312,82);
\draw[draw=black,fill=gray] (axis cs:0.735675671442312,0) rectangle (axis cs:0.763659734650385,126);
\draw[draw=black,fill=gray] (axis cs:0.763659734650385,0) rectangle (axis cs:0.791643797858459,121);
\draw[draw=black,fill=gray] (axis cs:0.791643797858459,0) rectangle (axis cs:0.819627861066533,60);
\draw[draw=black,fill=gray] (axis cs:0.819627861066533,0) rectangle (axis cs:0.847611924274606,31);
\draw[draw=black,fill=gray] (axis cs:0.847611924274606,0) rectangle (axis cs:0.87559598748268,6);
\draw[draw=black,fill=gray] (axis cs:0.87559598748268,0) rectangle (axis cs:0.903580050690753,1);
\draw[fill=white,draw opacity=0] (axis cs:0,0) rectangle (axis cs:1,1);
\path [draw=black, fill opacity=0] (axis cs:0.6,1)--(axis cs:1,1);

\path [draw=black, fill opacity=0] (axis cs:0,0)--(axis cs:0,501);

\path [draw=black, fill opacity=0] (axis cs:1,0)--(axis cs:1,501);

\path [draw=black, fill opacity=0] (axis cs:0.6,0)--(axis cs:1,0);

\nextgroupplot[
xmin=0, xmax=1,
ymin=0, ymax=501,
axis on top
]
\addplot [red]
coordinates {
(0.7,0)
(0.7,501)

};
\draw[draw=black,fill=gray] (axis cs:0.26551405607043,0) rectangle (axis cs:0.331635487673572,3);
\draw[draw=black,fill=gray] (axis cs:0.331635487673572,0) rectangle (axis cs:0.397756919276714,16);
\draw[draw=black,fill=gray] (axis cs:0.397756919276714,0) rectangle (axis cs:0.463878350879855,34);
\draw[draw=black,fill=gray] (axis cs:0.463878350879855,0) rectangle (axis cs:0.529999782482997,60);
\draw[draw=black,fill=gray] (axis cs:0.529999782482997,0) rectangle (axis cs:0.596121214086139,108);
\draw[draw=black,fill=gray] (axis cs:0.596121214086139,0) rectangle (axis cs:0.662242645689281,104);
\draw[draw=black,fill=gray] (axis cs:0.662242645689281,0) rectangle (axis cs:0.728364077292423,91);
\draw[draw=black,fill=gray] (axis cs:0.728364077292423,0) rectangle (axis cs:0.794485508895565,56);
\draw[draw=black,fill=gray] (axis cs:0.794485508895565,0) rectangle (axis cs:0.860606940498707,21);
\draw[draw=black,fill=gray] (axis cs:0.860606940498707,0) rectangle (axis cs:0.926728372101848,8);
\draw[fill=white,draw opacity=0] (axis cs:0,0) rectangle (axis cs:1,1);
\path [draw=black, fill opacity=0] (axis cs:0,1)--(axis cs:1,1);

\path [draw=black, fill opacity=0] (axis cs:0,0)--(axis cs:0,501);

\path [draw=black, fill opacity=0] (axis cs:1,0)--(axis cs:1,501);

\path [draw=black, fill opacity=0] (axis cs:0,0)--(axis cs:1,0);

\nextgroupplot[
xmin=-0.5, xmax=0.5,
ymin=0, ymax=501,
axis on top
]
\addplot [red]
coordinates {
(0,0)
(0,501)

};
\draw[draw=black,fill=gray] (axis cs:-0.24929924958415,0) rectangle (axis cs:-0.177695633488002,7);
\draw[draw=black,fill=gray] (axis cs:-0.177695633488002,0) rectangle (axis cs:-0.106092017391855,17);
\draw[draw=black,fill=gray] (axis cs:-0.106092017391855,0) rectangle (axis cs:-0.034488401295707,55);
\draw[draw=black,fill=gray] (axis cs:-0.034488401295707,0) rectangle (axis cs:0.0371152148004405,107);
\draw[draw=black,fill=gray] (axis cs:0.0371152148004405,0) rectangle (axis cs:0.108718830896588,94);
\draw[draw=black,fill=gray] (axis cs:0.108718830896588,0) rectangle (axis cs:0.180322446992736,106);
\draw[draw=black,fill=gray] (axis cs:0.180322446992736,0) rectangle (axis cs:0.251926063088883,76);
\draw[draw=black,fill=gray] (axis cs:0.251926063088883,0) rectangle (axis cs:0.323529679185031,31);
\draw[draw=black,fill=gray] (axis cs:0.323529679185031,0) rectangle (axis cs:0.395133295281178,6);
\draw[draw=black,fill=gray] (axis cs:0.395133295281178,0) rectangle (axis cs:0.466736911377326,2);
\draw[fill=white,draw opacity=0] (axis cs:0,0) rectangle (axis cs:1,1);
\path [draw=black, fill opacity=0] (axis cs:-0.5,1)--(axis cs:0.5,1);

\path [draw=black, fill opacity=0] (axis cs:0,0)--(axis cs:0,501);

\path [draw=black, fill opacity=0] (axis cs:1,0)--(axis cs:1,501);

\path [draw=black, fill opacity=0] (axis cs:-0.5,0)--(axis cs:0.5,0);

\nextgroupplot[
xmin=-0.05, xmax=0.05,
ymin=0, ymax=501,
axis on top
]
\addplot [red]
coordinates {
(0,0)
(0,501)

};
\draw[draw=black,fill=gray] (axis cs:-0.0255973914279651,0) rectangle (axis cs:-0.0190927387005917,14);
\draw[draw=black,fill=gray] (axis cs:-0.0190927387005917,0) rectangle (axis cs:-0.0125880859732184,29);
\draw[draw=black,fill=gray] (axis cs:-0.0125880859732184,0) rectangle (axis cs:-0.00608343324584499,65);
\draw[draw=black,fill=gray] (axis cs:-0.00608343324584499,0) rectangle (axis cs:0.00042121948152838,101);
\draw[draw=black,fill=gray] (axis cs:0.00042121948152838,0) rectangle (axis cs:0.00692587220890175,109);
\draw[draw=black,fill=gray] (axis cs:0.00692587220890175,0) rectangle (axis cs:0.0134305249362751,87);
\draw[draw=black,fill=gray] (axis cs:0.0134305249362751,0) rectangle (axis cs:0.0199351776636485,57);
\draw[draw=black,fill=gray] (axis cs:0.0199351776636485,0) rectangle (axis cs:0.0264398303910219,27);
\draw[draw=black,fill=gray] (axis cs:0.0264398303910219,0) rectangle (axis cs:0.0329444831183952,10);
\draw[draw=black,fill=gray] (axis cs:0.0329444831183952,0) rectangle (axis cs:0.0394491358457686,2);
\draw[fill=white,draw opacity=0] (axis cs:0,0) rectangle (axis cs:1,1);
\path [draw=black, fill opacity=0] (axis cs:-0.05,1)--(axis cs:0.05,1);

\path [draw=black, fill opacity=0] (axis cs:0,0)--(axis cs:0,501);

\path [draw=black, fill opacity=0] (axis cs:1,0)--(axis cs:1,501);

\path [draw=black, fill opacity=0] (axis cs:-0.05,0)--(axis cs:0.05,0);

\nextgroupplot[
xmin=0.5, xmax=1.5,
ymin=0, ymax=501,
axis on top
]
\addplot [red]
coordinates {
(0.9,0)
(0.9,501)

};
\draw[draw=black,fill=gray] (axis cs:0.823130532507087,0) rectangle (axis cs:0.861872879296405,2);
\draw[draw=black,fill=gray] (axis cs:0.861872879296405,0) rectangle (axis cs:0.900615226085723,11);
\draw[draw=black,fill=gray] (axis cs:0.900615226085723,0) rectangle (axis cs:0.939357572875041,29);
\draw[draw=black,fill=gray] (axis cs:0.939357572875041,0) rectangle (axis cs:0.978099919664359,84);
\draw[draw=black,fill=gray] (axis cs:0.978099919664359,0) rectangle (axis cs:1.01684226645368,134);
\draw[draw=black,fill=gray] (axis cs:1.01684226645368,0) rectangle (axis cs:1.055584613243,138);
\draw[draw=black,fill=gray] (axis cs:1.055584613243,0) rectangle (axis cs:1.09432696003231,67);
\draw[draw=black,fill=gray] (axis cs:1.09432696003231,0) rectangle (axis cs:1.13306930682163,25);
\draw[draw=black,fill=gray] (axis cs:1.13306930682163,0) rectangle (axis cs:1.17181165361095,7);
\draw[draw=black,fill=gray] (axis cs:1.17181165361095,0) rectangle (axis cs:1.21055400040027,4);
\draw[fill=white,draw opacity=0] (axis cs:0,0) rectangle (axis cs:1,1);
\path [draw=black, fill opacity=0] (axis cs:0.5,1)--(axis cs:1.5,1);

\path [draw=black, fill opacity=0] (axis cs:0,0)--(axis cs:0,501);

\path [draw=black, fill opacity=0] (axis cs:1,0)--(axis cs:1,501);

\path [draw=black, fill opacity=0] (axis cs:0.5,0)--(axis cs:1.5,0);

\nextgroupplot[
xmin=-2, xmax=0,
ymin=0, ymax=501,
axis on top,
xtick={-2,-1,0},
xticklabels={−2,−1,0}
]
\addplot [red]
coordinates {
(-0.5,0)
(-0.5,501)

};
\draw[draw=black,fill=gray] (axis cs:-1.15914189306468,0) rectangle (axis cs:-1.07796663037005,4);
\draw[draw=black,fill=gray] (axis cs:-1.07796663037005,0) rectangle (axis cs:-0.996791367675418,10);
\draw[draw=black,fill=gray] (axis cs:-0.996791367675418,0) rectangle (axis cs:-0.91561610498079,34);
\draw[draw=black,fill=gray] (axis cs:-0.91561610498079,0) rectangle (axis cs:-0.834440842286162,62);
\draw[draw=black,fill=gray] (axis cs:-0.834440842286162,0) rectangle (axis cs:-0.753265579591533,95);
\draw[draw=black,fill=gray] (axis cs:-0.753265579591533,0) rectangle (axis cs:-0.672090316896905,101);
\draw[draw=black,fill=gray] (axis cs:-0.672090316896905,0) rectangle (axis cs:-0.590915054202277,98);
\draw[draw=black,fill=gray] (axis cs:-0.590915054202277,0) rectangle (axis cs:-0.509739791507648,55);
\draw[draw=black,fill=gray] (axis cs:-0.509739791507648,0) rectangle (axis cs:-0.42856452881302,29);
\draw[draw=black,fill=gray] (axis cs:-0.42856452881302,0) rectangle (axis cs:-0.347389266118392,13);
\draw[fill=white,draw opacity=0] (axis cs:0,0) rectangle (axis cs:1,1);
\path [draw=black, fill opacity=0] (axis cs:-2,1)--(axis cs:0,1);

\path [draw=black, fill opacity=0] (axis cs:0,0)--(axis cs:0,501);

\path [draw=black, fill opacity=0] (axis cs:1,0)--(axis cs:1,501);

\path [draw=black, fill opacity=0] (axis cs:-2,0)--(axis cs:0,0);

\nextgroupplot[
xmin=-1, xmax=1,
ymin=0, ymax=501,
axis on top,
xtick={-1,0,1},
xticklabels={−1,0,1}
]
\addplot [red]
coordinates {
(0.1,0)
(0.1,501)

};
\draw[draw=black,fill=gray] (axis cs:-0.0434526235120493,0) rectangle (axis cs:0.0470263352434694,6);
\draw[draw=black,fill=gray] (axis cs:0.0470263352434694,0) rectangle (axis cs:0.137505293998988,25);
\draw[draw=black,fill=gray] (axis cs:0.137505293998988,0) rectangle (axis cs:0.227984252754507,48);
\draw[draw=black,fill=gray] (axis cs:0.227984252754507,0) rectangle (axis cs:0.318463211510026,91);
\draw[draw=black,fill=gray] (axis cs:0.318463211510026,0) rectangle (axis cs:0.408942170265544,93);
\draw[draw=black,fill=gray] (axis cs:0.408942170265544,0) rectangle (axis cs:0.499421129021063,94);
\draw[draw=black,fill=gray] (axis cs:0.499421129021063,0) rectangle (axis cs:0.589900087776582,86);
\draw[draw=black,fill=gray] (axis cs:0.589900087776582,0) rectangle (axis cs:0.680379046532101,33);
\draw[draw=black,fill=gray] (axis cs:0.680379046532101,0) rectangle (axis cs:0.770858005287619,19);
\draw[draw=black,fill=gray] (axis cs:0.770858005287619,0) rectangle (axis cs:0.861336964043138,6);
\draw[fill=white,draw opacity=0] (axis cs:0,0) rectangle (axis cs:1,1);
\path [draw=black, fill opacity=0] (axis cs:-1,1)--(axis cs:1,1);

\path [draw=black, fill opacity=0] (axis cs:0,0)--(axis cs:0,501);

\path [draw=black, fill opacity=0] (axis cs:1,0)--(axis cs:1,501);

\path [draw=black, fill opacity=0] (axis cs:-1,0)--(axis cs:1,0);

\nextgroupplot[
xmin=-0.05, xmax=0.05,
ymin=0, ymax=501,
axis on top
]
\addplot [red]
coordinates {
(0,0)
(0,501)

};
\draw[draw=black,fill=gray] (axis cs:-0.0396035694864578,0) rectangle (axis cs:-0.0336318971749747,20);
\draw[draw=black,fill=gray] (axis cs:-0.0336318971749747,0) rectangle (axis cs:-0.0276602248634916,51);
\draw[draw=black,fill=gray] (axis cs:-0.0276602248634916,0) rectangle (axis cs:-0.0216885525520085,56);
\draw[draw=black,fill=gray] (axis cs:-0.0216885525520085,0) rectangle (axis cs:-0.0157168802405253,60);
\draw[draw=black,fill=gray] (axis cs:-0.0157168802405253,0) rectangle (axis cs:-0.00974520792904223,106);
\draw[draw=black,fill=gray] (axis cs:-0.00974520792904223,0) rectangle (axis cs:-0.00377353561755911,136);
\draw[draw=black,fill=gray] (axis cs:-0.00377353561755911,0) rectangle (axis cs:0.002198136693924,52);
\draw[draw=black,fill=gray] (axis cs:0.002198136693924,0) rectangle (axis cs:0.00816980900540713,12);
\draw[draw=black,fill=gray] (axis cs:0.00816980900540713,0) rectangle (axis cs:0.0141414813168902,1);
\draw[draw=black,fill=gray] (axis cs:0.0141414813168902,0) rectangle (axis cs:0.0201131536283734,7);
\draw[fill=white,draw opacity=0] (axis cs:0,0) rectangle (axis cs:1,1);
\path [draw=black, fill opacity=0] (axis cs:-0.05,1)--(axis cs:0.05,1);

\path [draw=black, fill opacity=0] (axis cs:0,0)--(axis cs:0,501);

\path [draw=black, fill opacity=0] (axis cs:1,0)--(axis cs:1,501);

\path [draw=black, fill opacity=0] (axis cs:-0.05,0)--(axis cs:0.05,0);

\nextgroupplot[
xmin=-0.2, xmax=0.2,
ymin=0, ymax=501,
axis on top
]
\addplot [red]
coordinates {
(0,0)
(0,501)

};
\draw[draw=black,fill=gray] (axis cs:-0.0961384148687972,0) rectangle (axis cs:-0.0715602946191161,2);
\draw[draw=black,fill=gray] (axis cs:-0.0715602946191161,0) rectangle (axis cs:-0.0469821743694349,4);
\draw[draw=black,fill=gray] (axis cs:-0.046982174369435,0) rectangle (axis cs:-0.0224040541197538,33);
\draw[draw=black,fill=gray] (axis cs:-0.0224040541197538,0) rectangle (axis cs:0.00217406612992732,87);
\draw[draw=black,fill=gray] (axis cs:0.00217406612992732,0) rectangle (axis cs:0.0267521863796085,129);
\draw[draw=black,fill=gray] (axis cs:0.0267521863796085,0) rectangle (axis cs:0.0513303066292896,132);
\draw[draw=black,fill=gray] (axis cs:0.0513303066292896,0) rectangle (axis cs:0.0759084268789707,70);
\draw[draw=black,fill=gray] (axis cs:0.0759084268789707,0) rectangle (axis cs:0.100486547128652,33);
\draw[draw=black,fill=gray] (axis cs:0.100486547128652,0) rectangle (axis cs:0.125064667378333,8);
\draw[draw=black,fill=gray] (axis cs:0.125064667378333,0) rectangle (axis cs:0.149642787628014,3);
\draw[fill=white,draw opacity=0] (axis cs:0,0) rectangle (axis cs:1,1);
\path [draw=black, fill opacity=0] (axis cs:-0.2,1)--(axis cs:0.2,1);

\path [draw=black, fill opacity=0] (axis cs:0,0)--(axis cs:0,501);

\path [draw=black, fill opacity=0] (axis cs:1,0)--(axis cs:1,501);

\path [draw=black, fill opacity=0] (axis cs:-0.2,0)--(axis cs:0.2,0);

\nextgroupplot[
xmin=1, xmax=2,
ymin=0, ymax=501,
axis on top
]
\addplot [red]
coordinates {
(1.6,0)
(1.6,501)

};
\draw[draw=black,fill=gray] (axis cs:1.28888006914825,0) rectangle (axis cs:1.34004199548562,4);
\draw[draw=black,fill=gray] (axis cs:1.34004199548562,0) rectangle (axis cs:1.391203921823,5);
\draw[draw=black,fill=gray] (axis cs:1.391203921823,0) rectangle (axis cs:1.44236584816037,19);
\draw[draw=black,fill=gray] (axis cs:1.44236584816037,0) rectangle (axis cs:1.49352777449774,35);
\draw[draw=black,fill=gray] (axis cs:1.49352777449774,0) rectangle (axis cs:1.54468970083512,43);
\draw[draw=black,fill=gray] (axis cs:1.54468970083512,0) rectangle (axis cs:1.59585162717249,81);
\draw[draw=black,fill=gray] (axis cs:1.59585162717249,0) rectangle (axis cs:1.64701355350986,120);
\draw[draw=black,fill=gray] (axis cs:1.64701355350986,0) rectangle (axis cs:1.69817547984724,122);
\draw[draw=black,fill=gray] (axis cs:1.69817547984724,0) rectangle (axis cs:1.74933740618461,59);
\draw[draw=black,fill=gray] (axis cs:1.74933740618461,0) rectangle (axis cs:1.80049933252199,13);
\draw[fill=white,draw opacity=0] (axis cs:0,0) rectangle (axis cs:1,1);
\path [draw=black, fill opacity=0] (axis cs:1,1)--(axis cs:2,1);

\path [draw=black, fill opacity=0] (axis cs:0,0)--(axis cs:0,501);

\path [draw=black, fill opacity=0] (axis cs:1,0)--(axis cs:1,501);

\path [draw=black, fill opacity=0] (axis cs:1,0)--(axis cs:2,0);

\nextgroupplot[
xmin=-1, xmax=0,
ymin=0, ymax=501,
axis on top
]
\addplot [red]
coordinates {
(-0.8,0)
(-0.8,501)

};
\draw[draw=black,fill=gray] (axis cs:-0.991679312025061,0) rectangle (axis cs:-0.932051765812111,15);
\draw[draw=black,fill=gray] (axis cs:-0.932051765812111,0) rectangle (axis cs:-0.872424219599161,63);
\draw[draw=black,fill=gray] (axis cs:-0.872424219599161,0) rectangle (axis cs:-0.812796673386211,132);
\draw[draw=black,fill=gray] (axis cs:-0.812796673386211,0) rectangle (axis cs:-0.753169127173261,127);
\draw[draw=black,fill=gray] (axis cs:-0.753169127173261,0) rectangle (axis cs:-0.693541580960312,71);
\draw[draw=black,fill=gray] (axis cs:-0.693541580960312,0) rectangle (axis cs:-0.633914034747362,50);
\draw[draw=black,fill=gray] (axis cs:-0.633914034747362,0) rectangle (axis cs:-0.574286488534412,27);
\draw[draw=black,fill=gray] (axis cs:-0.574286488534412,0) rectangle (axis cs:-0.514658942321462,12);
\draw[draw=black,fill=gray] (axis cs:-0.514658942321462,0) rectangle (axis cs:-0.455031396108512,3);
\draw[draw=black,fill=gray] (axis cs:-0.455031396108512,0) rectangle (axis cs:-0.395403849895562,1);
\draw[fill=white,draw opacity=0] (axis cs:0,0) rectangle (axis cs:1,1);
\path [draw=black, fill opacity=0] (axis cs:-1,1)--(axis cs:0,1);

\path [draw=black, fill opacity=0] (axis cs:0,0)--(axis cs:0,501);

\path [draw=black, fill opacity=0] (axis cs:1,0)--(axis cs:1,501);

\path [draw=black, fill opacity=0] (axis cs:-1,0)--(axis cs:0,0);

\nextgroupplot[
xmin=-0.1, xmax=0.1,
ymin=0, ymax=501,
axis on top
]
\addplot [red]
coordinates {
(0,0)
(0,501)

};
\draw[draw=black,fill=gray] (axis cs:-0.0649644430394791,0) rectangle (axis cs:-0.0556898621639583,10);
\draw[draw=black,fill=gray] (axis cs:-0.0556898621639583,0) rectangle (axis cs:-0.0464152812884376,36);
\draw[draw=black,fill=gray] (axis cs:-0.0464152812884376,0) rectangle (axis cs:-0.0371407004129168,67);
\draw[draw=black,fill=gray] (axis cs:-0.0371407004129168,0) rectangle (axis cs:-0.027866119537396,55);
\draw[draw=black,fill=gray] (axis cs:-0.027866119537396,0) rectangle (axis cs:-0.0185915386618753,56);
\draw[draw=black,fill=gray] (axis cs:-0.0185915386618753,0) rectangle (axis cs:-0.0093169577863545,104);
\draw[draw=black,fill=gray] (axis cs:-0.0093169577863545,0) rectangle (axis cs:-4.23769108337246e-05,97);
\draw[draw=black,fill=gray] (axis cs:-4.23769108337246e-05,0) rectangle (axis cs:0.00923220396468705,50);
\draw[draw=black,fill=gray] (axis cs:0.00923220396468705,0) rectangle (axis cs:0.0185067848402078,18);
\draw[draw=black,fill=gray] (axis cs:0.0185067848402078,0) rectangle (axis cs:0.0277813657157286,8);
\draw[fill=white,draw opacity=0] (axis cs:0,0) rectangle (axis cs:1,1);
\path [draw=black, fill opacity=0] (axis cs:-0.1,1)--(axis cs:0.1,1);

\path [draw=black, fill opacity=0] (axis cs:0,0)--(axis cs:0,501);

\path [draw=black, fill opacity=0] (axis cs:1,0)--(axis cs:1,501);

\path [draw=black, fill opacity=0] (axis cs:-0.1,0)--(axis cs:0.1,0);

\nextgroupplot[
xmin=-0.5, xmax=0.5,
ymin=0, ymax=501,
axis on top
]
\addplot [red]
coordinates {
(0,0)
(0,501)

};
\draw[draw=black,fill=gray] (axis cs:-0.320200967352676,0) rectangle (axis cs:-0.28490855717384,3);
\draw[draw=black,fill=gray] (axis cs:-0.28490855717384,0) rectangle (axis cs:-0.249616146995004,8);
\draw[draw=black,fill=gray] (axis cs:-0.249616146995004,0) rectangle (axis cs:-0.214323736816168,17);
\draw[draw=black,fill=gray] (axis cs:-0.214323736816168,0) rectangle (axis cs:-0.179031326637332,38);
\draw[draw=black,fill=gray] (axis cs:-0.179031326637332,0) rectangle (axis cs:-0.143738916458496,81);
\draw[draw=black,fill=gray] (axis cs:-0.143738916458496,0) rectangle (axis cs:-0.10844650627966,114);
\draw[draw=black,fill=gray] (axis cs:-0.10844650627966,0) rectangle (axis cs:-0.0731540961008238,105);
\draw[draw=black,fill=gray] (axis cs:-0.0731540961008238,0) rectangle (axis cs:-0.0378616859219877,84);
\draw[draw=black,fill=gray] (axis cs:-0.0378616859219877,0) rectangle (axis cs:-0.00256927574315169,36);
\draw[draw=black,fill=gray] (axis cs:-0.00256927574315169,0) rectangle (axis cs:0.0327231344356843,15);
\draw[fill=white,draw opacity=0] (axis cs:0,0) rectangle (axis cs:1,1);
\path [draw=black, fill opacity=0] (axis cs:-0.5,1)--(axis cs:0.5,1);

\path [draw=black, fill opacity=0] (axis cs:0,0)--(axis cs:0,501);

\path [draw=black, fill opacity=0] (axis cs:1,0)--(axis cs:1,501);

\path [draw=black, fill opacity=0] (axis cs:-0.5,0)--(axis cs:0.5,0);

\nextgroupplot[
xmin=0, xmax=2,
ymin=0, ymax=501,
axis on top,
xtick={0,1,2},
xticklabels={0,1,2}
]
\addplot [red]
coordinates {
(1,0)
(1,501)

};
\draw[draw=black,fill=gray] (axis cs:0.948969868706218,0) rectangle (axis cs:1.02548202199026,7);
\draw[draw=black,fill=gray] (axis cs:1.02548202199026,0) rectangle (axis cs:1.10199417527429,19);
\draw[draw=black,fill=gray] (axis cs:1.10199417527429,0) rectangle (axis cs:1.17850632855833,59);
\draw[draw=black,fill=gray] (axis cs:1.17850632855833,0) rectangle (axis cs:1.25501848184237,97);
\draw[draw=black,fill=gray] (axis cs:1.25501848184237,0) rectangle (axis cs:1.33153063512641,111);
\draw[draw=black,fill=gray] (axis cs:1.33153063512641,0) rectangle (axis cs:1.40804278841045,85);
\draw[draw=black,fill=gray] (axis cs:1.40804278841045,0) rectangle (axis cs:1.48455494169449,72);
\draw[draw=black,fill=gray] (axis cs:1.48455494169449,0) rectangle (axis cs:1.56106709497852,29);
\draw[draw=black,fill=gray] (axis cs:1.56106709497852,0) rectangle (axis cs:1.63757924826256,21);
\draw[draw=black,fill=gray] (axis cs:1.63757924826256,0) rectangle (axis cs:1.7140914015466,1);
\draw[fill=white,draw opacity=0] (axis cs:0,0) rectangle (axis cs:1,1);
\path [draw=black, fill opacity=0] (axis cs:0,1)--(axis cs:2,1);

\path [draw=black, fill opacity=0] (axis cs:0,0)--(axis cs:0,501);

\path [draw=black, fill opacity=0] (axis cs:1,0)--(axis cs:1,501);

\path [draw=black, fill opacity=0] (axis cs:0,0)--(axis cs:2,0);

\nextgroupplot[
xmin=-1, xmax=1,
ymin=0, ymax=501,
axis on top,
xtick={-1,0,1},
xticklabels={−1,0,1}
]
\addplot [red]
coordinates {
(0,0)
(0,501)

};
\draw[draw=black,fill=gray] (axis cs:-0.756351359703639,0) rectangle (axis cs:-0.680192343473074,6);
\draw[draw=black,fill=gray] (axis cs:-0.680192343473074,0) rectangle (axis cs:-0.604033327242509,21);
\draw[draw=black,fill=gray] (axis cs:-0.604033327242509,0) rectangle (axis cs:-0.527874311011945,42);
\draw[draw=black,fill=gray] (axis cs:-0.527874311011945,0) rectangle (axis cs:-0.45171529478138,58);
\draw[draw=black,fill=gray] (axis cs:-0.45171529478138,0) rectangle (axis cs:-0.375556278550816,88);
\draw[draw=black,fill=gray] (axis cs:-0.375556278550816,0) rectangle (axis cs:-0.299397262320251,105);
\draw[draw=black,fill=gray] (axis cs:-0.299397262320251,0) rectangle (axis cs:-0.223238246089686,98);
\draw[draw=black,fill=gray] (axis cs:-0.223238246089686,0) rectangle (axis cs:-0.147079229859122,51);
\draw[draw=black,fill=gray] (axis cs:-0.147079229859122,0) rectangle (axis cs:-0.0709202136285574,23);
\draw[draw=black,fill=gray] (axis cs:-0.0709202136285574,0) rectangle (axis cs:0.00523880260200721,9);
\draw[fill=white,draw opacity=0] (axis cs:0,0) rectangle (axis cs:1,1);
\path [draw=black, fill opacity=0] (axis cs:-1,1)--(axis cs:1,1);

\path [draw=black, fill opacity=0] (axis cs:0,0)--(axis cs:0,501);

\path [draw=black, fill opacity=0] (axis cs:1,0)--(axis cs:1,501);

\path [draw=black, fill opacity=0] (axis cs:-1,0)--(axis cs:1,0);

\end{groupplot}

\end{tikzpicture}