0.80988,-0.31252
0.93469,0.098709
0.53324,0.45332
0.86244,0.67229
0.82923,0.7823
0.68845,0.83678
0.79774,0.87523
0.89731,0.95641
1.2428,1.0696
1.1833,1.1593
0.79065,1.1925
1.2439,1.1038
1.0209,0.7524
0.94234,0.13075
1.0126,-0.46312
0.9077,-0.58916
0.90403,-0.28581
1.0598,0.1425
1.0536,0.47255
1.0613,0.66908
0.99513,0.75774
0.8145,0.71074
1.01,0.41914
1.0971,-0.11812
0.96975,-0.67567
1.0014,-1.0399
0.94021,-1.1926
0.80221,-1.2033
0.82546,-1.0976
0.68436,-0.87541
0.82631,-0.54643
0.61522,0.20018
0.63269,0.45653
0.67244,0.49498
0.46988,0.34117
0.91054,0.012192
0.79056,-0.37233
0.66253,-0.68849
0.84628,-0.89037
0.5024,-1.0346
0.62303,-1.0581
0.5707,-0.83482
0.60192,-0.35738
0.59788,0.18202
0.49724,0.55373
0.605,0.54091
0.60785,0.19698
0.68713,-0.25163
0.71853,-0.61159
0.69077,-0.92241
0.45285,-1.1488
0.49802,-1.2557
0.31597,-1.2706
0.27162,-1.2599
0.32951,-1.1125
0.43891,-0.96727
0.16799,-1.0239
0.23399,-1.182
0.11482,-1.2001
0.19786,-0.79317
-0.049202,-0.1993
0.067853,0.34544
0.14948,0.68404
0.24777,0.87523
0.34507,1.0023
0.25744,1.0504
0.15732,1.0034
0.28684,0.98738
0.30815,0.9735
0.69917,0.90086
0.44586,0.77376
0.61803,0.62209
0.54947,0.3636
0.67037,0.10725
0.51087,0.088028
0.45735,0.31233
0.47231,0.40205
0.67735,0.17455
0.61075,-0.28688
0.59156,-0.68102
0.72379,-0.90318
0.57387,-1.0121
0.52353,-1.0495
0.62044,-1.0463
0.33908,-0.98769
0.44956,-0.8925
0.42897,-0.77608
0.29139,-0.64897
0.31317,-0.44603
0.16377,-0.1021
0.17476,0.26213
0.32474,0.44905
0.41627,0.45055
0.62864,0.3871
0.3296,0.44691
0.44524,0.56013
0.45163,0.59004
0.298,0.57295
0.4797,0.66588
0.38121,0.85066
0.68831,1.0173
0.56238,1.1316
0.70804,1.1903
0.68671,1.1487
0.80802,1.0621
0.75014,1.0568
0.88963,1.1433
0.94271,1.2063
1.0649,1.1871
0.89394,1.0771
0.71303,0.86775
0.84946,0.55373
1.0693,0.12968
0.8197,-0.2762
1.0101,-0.54857
0.90925,-0.62975
1.0228,-0.52187
0.6681,-0.35631
0.83399,-0.14162
0.72861,0.14891
1.1397,0.25038
0.92797,-0.030533
0.97049,-0.56779
0.7012,-0.95979
0.7255,-1.0773
0.70781,-1.0517
0.80956,-0.86794
0.64558,-0.49409
0.73361,0.01326
0.46453,0.3401
0.64747,0.38924
0.61496,0.43517
0.55798,0.61461
0.78943,0.75453
0.79226,0.83891
0.79419,0.93932
0.68492,1.0312
0.95735,1.0568
0.90312,1.0387
0.85744,0.92223
0.90227,0.65627
0.87879,0.29845
0.7265,-0.12666
0.86073,-0.54536
0.78557,-0.83162
0.74407,-0.94057
0.69704,-0.92348
0.72958,-0.86794
0.55316,-0.80171
0.82169,-0.75792
0.74872,-0.7921
0.66356,-0.85939
0.62829,-0.92882
0.51561,-0.88823
0.6647,-0.72588
0.52335,-0.63509
0.43867,-0.75471
0.61118,-0.94591
0.41199,-1.0324
0.33212,-0.93523
0.325,-0.68102
0.24719,-0.37553
0.21132,-0.18755
0.57164,-0.24095
0.47412,-0.42253
0.32068,-0.53575
0.1416,-0.51332
0.16238,-0.34029
0.22381,-0.076462
0.3275,0.13503
0.1277,0.17775
0.040085,0.25786
0.15107,0.5078
0.36383,0.69685
0.40953,0.73851
0.45552,0.70006
0.4322,0.63918
0.49642,0.61674
0.46273,0.62743
0.6253,0.49284
0.42126,0.213
0.60988,-0.0048981
0.47928,-0.1555
0.52277,-0.36806
0.59451,-0.56459
0.61971,-0.67354
0.3767,-0.68315
0.5886,-0.51653
0.51516,-0.14803
0.44692,0.23116
0.45287,0.44905
0.4763,0.48964
0.48895,0.28242
0.53132,0.062393
0.5399,0.12114
0.63018,0.32088
0.71717,0.29951
0.62025,-0.042282
0.54568,-0.47166
0.60601,-0.81026
0.52625,-1.0314
0.35996,-1.0645
0.51664,-0.73228
0.43325,-0.13094
0.42583,0.42021
0.4943,0.70006
0.50763,0.68724
0.41649,0.35612
0.50564,0.042099
0.51368,0.004715
0.47796,-0.12773
0.69107,-0.51866
0.40909,-0.92134
0.40704,-1.1286
0.33889,-1.0014
0.25445,-0.72801
0.33005,-0.31252
0.32027,0.12648
0.52039,0.49071
0.37758,0.72142
0.33944,0.83571
0.65254,0.92863
0.6653,1.0621
0.57492,1.2747
0.50696,1.4456
0.67305,1.53
0.75758,1.5631
0.84992,1.6197
0.83365,1.4253
0.92567,0.72997
0.92294,-0.13521
0.74396,-0.77821
0.7462,-1.1745
0.73001,-1.2834
0.7145,-1.1104
0.69928,-0.8156
0.70781,-0.53041
0.38718,-0.34135
0.63315,-0.23882
0.79633,-0.1256
0.56178,-0.088211
0.75823,-0.14055
0.69426,-0.17793
0.65149,-0.13734
0.66852,-0.13414
0.48965,-0.13521
0.63504,-0.070053
0.80429,0.027145
0.65701,0.075211
0.65576,0.094437
0.58416,0.15532
0.66223,0.20338
0.69635,0.15318
0.71981,0.03569
0.64051,-0.035873
0.65259,-0.079666
0.87498,-0.14803
0.44019,-0.24843
0.88063,-0.2292
0.68661,-0.073257
0.75454,0.10619
0.49551,0.22688
0.6134,0.26747
0.6552,0.25572
0.73548,0.26106
0.53865,0.37642
0.77095,0.60713
0.6276,0.8325
0.78327,0.89873
0.86629,0.77803
0.85118,0.53984
0.93703,0.32835
