1430143253018	RAWMAG	24.609375	-41.270447	19.570923	21.839905	-32.939148	70.259094
1430143253119	RAWMAG	24.784851	-42.504883	18.370056	21.839905	-32.939148	70.259094
1430143253210	RAWGYR	-0.057037354	0.0057373047	0.0079193115	-0.029434204	0.0035705566	1.6784668E-4
1430143253220	RAWMAG	24.960327	-41.270447	20.257568	21.839905	-32.939148	70.259094
1430143253311	RAWGYR	-0.050628662	0.010009766	-6.2561035E-4	-0.029434204	0.0035705566	1.6784668E-4
1430143253320	RAWMAG	26.191711	-41.093445	21.803284	21.839905	-32.939148	70.259094
1430143253412	RAWGYR	-0.041015625	0.017486572	-6.2561035E-4	-0.029434204	0.0035705566	1.6784668E-4
1430143253422	RAWMAG	24.960327	-41.270447	20.600891	21.839905	-32.939148	70.259094
1430143253513	RAWGYR	-0.028198242	0.013214111	0.0015106201	-0.029434204	0.0035705566	1.6784668E-4
1430143253522	RAWMAG	26.71814	-40.916443	20.944214	21.839905	-32.939148	70.259094
1430143253613	RAWGYR	-0.029266357	0.017486572	4.4250488E-4	-0.029434204	0.0035705566	1.6784668E-4
1430143253623	RAWMAG	24.258423	-41.270447	20.600891	21.839905	-32.939148	70.259094
1430143253714	RAWGYR	-0.032470703	0.010009766	-6.2561035E-4	-0.029434204	0.0035705566	1.6784668E-4
1430143253724	RAWMAG	25.663757	-41.622925	19.914246	21.839905	-32.939148	70.259094
1430143253815	RAWGYR	-0.03353882	0.0014648438	-0.013442993	-0.029434204	0.0035705566	1.6784668E-4
1430143253824	RAWMAG	27.42157	-41.975403	20.944214	21.839905	-32.939148	70.259094
1430143253915	RAWGYR	-0.029266357	0.010009766	-0.032669067	-0.029434204	0.0035705566	1.6784668E-4
1430143253925	RAWMAG	25.488281	-41.7984	21.116638	21.839905	-32.939148	70.259094
1430143254016	RAWGYR	-0.026062012	0.010009766	-0.04548645	-0.029434204	0.0035705566	1.6784668E-4
1430143254026	RAWMAG	25.13733	-40.740967	20.773315	21.839905	-32.939148	70.259094
1430143254117	RAWGYR	-0.020721436	0.015350342	-0.042282104	-0.029434204	0.0035705566	1.6784668E-4
1430143254126	RAWMAG	25.839233	-41.7984	20.08667	21.839905	-32.939148	70.259094
1430143254217	RAWGYR	-0.041015625	0.015350342	-0.028396606	-0.029434204	0.0035705566	1.6784668E-4
1430143254227	RAWMAG	25.13733	-41.445923	20.773315	21.839905	-32.939148	70.259094
1430143254319	RAWGYR	-0.043151855	0.016418457	-0.029464722	-0.029434204	0.0035705566	1.6784668E-4
1430143254328	RAWMAG	23.379517	-43.562317	19.400024	21.839905	-32.939148	70.259094
1430143254419	RAWGYR	-0.047424316	3.9672852E-4	-0.03907776	-0.029434204	0.0035705566	1.6784668E-4
1430143254428	RAWMAG	24.609375	-41.270447	20.600891	21.839905	-32.939148	70.259094
1430143254519	RAWGYR	-0.036743164	-0.008148193	-0.033737183	-0.029434204	0.0035705566	1.6784668E-4
1430143254529	RAWMAG	24.433899	-40.38849	20.773315	21.839905	-32.939148	70.259094
1430143254621	RAWGYR	-0.03781128	-0.0038757324	-0.015579224	-0.029434204	0.0035705566	1.6784668E-4
1430143254630	RAWMAG	25.312805	-42.32788	21.287537	21.839905	-32.939148	70.259094
1430143254721	RAWGYR	-0.030334473	0.00894165	-0.0027618408	-0.029434204	0.0035705566	1.6784668E-4
1430143254730	RAWMAG	24.433899	-41.7984	19.400024	21.839905	-32.939148	70.259094
1430143254822	RAWGYR	-0.034606934	0.016418457	-0.0059661865	-0.029434204	0.0035705566	1.6784668E-4
1430143254831	RAWMAG	25.13733	-42.85736	21.45996	21.839905	-32.939148	70.259094
1430143254923	RAWGYR	-0.027130127	0.020690918	-0.089279175	-0.029434204	0.0035705566	1.6784668E-4
1430143254932	RAWMAG	24.960327	-43.38684	19.914246	21.839905	-32.939148	70.259094
1430143255023	RAWGYR	-0.015380859	0.017486572	-0.34135437	-0.029434204	0.0035705566	1.6784668E-4
1430143255033	RAWMAG	24.433899	-43.914795	21.116638	21.839905	-32.939148	70.259094
1430143255124	RAWGYR	-0.027130127	-0.049804688	-0.7483063	-0.029434204	0.0035705566	1.6784668E-4
1430143255133	RAWMAG	24.08142	-45.67871	19.400024	21.839905	-32.939148	70.259094
1430143255225	RAWGYR	-0.015380859	-0.12030029	-1.1007843	-0.029434204	0.0035705566	1.6784668E-4
1430143255234	RAWMAG	22.323608	-48.854065	21.116638	21.839905	-32.939148	70.259094
1430143255325	RAWGYR	-0.013244629	-0.15661621	-1.1744843	-0.029434204	0.0035705566	1.6784668E-4
1430143255335	RAWMAG	21.444702	-50.793457	23.005676	21.839905	-32.939148	70.259094
1430143255426	RAWGYR	-0.0025634766	-0.1491394	-0.9886322	-0.029434204	0.0035705566	1.6784668E-4
1430143255435	RAWMAG	22.148132	-51.852417	21.975708	21.839905	-32.939148	70.259094
1430143255527	RAWGYR	-0.02178955	-0.09466553	-0.61479187	-0.029434204	0.0035705566	1.6784668E-4
1430143255536	RAWMAG	22.50061	-50.793457	21.632385	21.839905	-32.939148	70.259094
1430143255627	RAWGYR	-0.041015625	3.9672852E-4	-0.17152405	-0.029434204	0.0035705566	1.6784668E-4
1430143255637	RAWMAG	24.960327	-51.49994	22.662354	21.839905	-32.939148	70.259094
1430143255728	RAWGYR	-0.045288086	0.06341553	0.15852356	-0.029434204	0.0035705566	1.6784668E-4
1430143255737	RAWMAG	23.379517	-50.61798	19.743347	21.839905	-32.939148	70.259094
1430143255829	RAWGYR	-0.07092285	0.057006836	0.27494812	-0.029434204	0.0035705566	1.6784668E-4
1430143255839	RAWMAG	23.730469	-48.501587	21.45996	21.839905	-32.939148	70.259094
1430143255930	RAWGYR	-0.05596924	0.03137207	0.21940613	-0.029434204	0.0035705566	1.6784668E-4
1430143255939	RAWMAG	23.027039	-48.854065	20.773315	21.839905	-32.939148	70.259094
1430143256030	RAWGYR	-0.029266357	-0.0028076172	0.01966858	-0.029434204	0.0035705566	1.6784668E-4
1430143256040	RAWMAG	22.676086	-50.263977	20.773315	21.839905	-32.939148	70.259094
1430143256132	RAWGYR	-0.029266357	-0.049804688	-0.25590515	-0.029434204	0.0035705566	1.6784668E-4
1430143256142	RAWMAG	23.202515	-52.204895	21.975708	21.839905	-32.939148	70.259094
1430143256233	RAWGYR	0.017730713	-0.09039307	-0.040145874	-0.029434204	0.0035705566	1.6784668E-4
1430143256242	RAWMAG	24.08142	-49.206543	22.146606	21.839905	-32.939148	70.259094
1430143256333	RAWGYR	-0.0057678223	0.038848877	0.62849426	-0.029434204	0.0035705566	1.6784668E-4
1430143256343	RAWMAG	23.202515	-49.02954	19.570923	21.839905	-32.939148	70.259094
1430143256434	RAWGYR	-0.02178955	0.17877197	1.1187592	-0.029434204	0.0035705566	1.6784668E-4
1430143256444	RAWMAG	23.554993	-45.503235	20.944214	21.839905	-32.939148	70.259094
1430143256534	RAWGYR	-0.03567505	0.16168213	1.2106171	-0.029434204	0.0035705566	1.6784668E-4
1430143256544	RAWMAG	23.730469	-44.2688	22.48993	21.839905	-32.939148	70.259094
1430143256635	RAWGYR	-0.010040283	0.115753174	1.2116852	-0.029434204	0.0035705566	1.6784668E-4
1430143256644	RAWMAG	24.08142	-42.85736	20.773315	21.839905	-32.939148	70.259094
1430143256736	RAWGYR	0.013458252	0.115753174	1.3751068	-0.029434204	0.0035705566	1.6784668E-4
1430143256745	RAWMAG	26.367188	-39.85901	19.570923	21.839905	-32.939148	70.259094
1430143256836	RAWGYR	-0.041015625	0.11895752	1.5705719	-0.029434204	0.0035705566	1.6784668E-4
1430143256846	RAWMAG	28.652954	-37.919617	20.08667	21.839905	-32.939148	70.259094
1430143256937	RAWGYR	-0.057037354	0.11148071	1.664566	-0.029434204	0.0035705566	1.6784668E-4
1430143256947	RAWMAG	30.410767	-35.803223	20.429993	21.839905	-32.939148	70.259094
1430143257038	RAWGYR	-0.065582275	0.07409668	1.6763153	-0.029434204	0.0035705566	1.6784668E-4
1430143257047	RAWMAG	33.398438	-35.273743	20.600891	21.839905	-32.939148	70.259094
1430143257138	RAWGYR	-0.067718506	0.070892334	1.5406647	-0.029434204	0.0035705566	1.6784668E-4
1430143257148	RAWMAG	34.277344	-32.62787	21.116638	21.839905	-32.939148	70.259094
1430143257239	RAWGYR	-0.08694458	0.07836914	1.1411896	-0.029434204	0.0035705566	1.6784668E-4
1430143257248	RAWMAG	35.507202	-33.15735	20.600891	21.839905	-32.939148	70.259094
1430143257340	RAWGYR	-0.04208374	0.06661987	0.50245667	-0.029434204	0.0035705566	1.6784668E-4
1430143257350	RAWMAG	34.980774	-31.922913	20.429993	21.839905	-32.939148	70.259094
1430143257440	RAWGYR	-0.03994751	0.026031494	-0.14482117	-0.029434204	0.0035705566	1.6784668E-4
1430143257450	RAWMAG	35.15625	-32.80487	20.944214	21.839905	-32.939148	70.259094
1430143257541	RAWGYR	-0.0602417	-0.019897461	-0.5667267	-0.029434204	0.0035705566	1.6784668E-4
1430143257551	RAWMAG	31.816101	-33.332825	22.146606	21.839905	-32.939148	70.259094
1430143257642	RAWGYR	-0.04849243	-0.04660034	-0.74617004	-0.029434204	0.0035705566	1.6784668E-4
1430143257652	RAWMAG	30.410767	-34.039307	21.45996	21.839905	-32.939148	70.259094
1430143257743	RAWGYR	-0.029266357	-0.061553955	-0.7451019	-0.029434204	0.0035705566	1.6784668E-4
1430143257752	RAWMAG	30.586243	-35.273743	19.914246	21.839905	-32.939148	70.259094
1430143257843	RAWGYR	-0.010040283	-0.06903076	-0.5944977	-0.029434204	0.0035705566	1.6784668E-4
1430143257853	RAWMAG	28.82843	-34.56726	21.632385	21.839905	-32.939148	70.259094
1430143257945	RAWGYR	-0.023925781	-0.041259766	-0.34776306	-0.029434204	0.0035705566	1.6784668E-4
1430143257954	RAWMAG	29.179382	-34.214783	19.914246	21.839905	-32.939148	70.259094
1430143258045	RAWGYR	-0.0463562	-0.008148193	-0.054031372	-0.029434204	0.0035705566	1.6784668E-4
1430143258054	RAWMAG	29.707336	-34.039307	20.429993	21.839905	-32.939148	70.259094
1430143258145	RAWGYR	-0.049560547	0.0335083	0.22261047	-0.029434204	0.0035705566	1.6784668E-4
1430143258155	RAWMAG	30.233765	-34.921265	19.914246	21.839905	-32.939148	70.259094
1430143258247	RAWGYR	-0.032470703	0.061279297	0.3935089	-0.029434204	0.0035705566	1.6784668E-4
1430143258256	RAWMAG	32.16858	-34.744263	20.429993	21.839905	-32.939148	70.259094
1430143258347	RAWGYR	-0.007904053	0.054870605	0.36787415	-0.029434204	0.0035705566	1.6784668E-4
1430143258357	RAWMAG	31.816101	-33.68683	20.429993	21.839905	-32.939148	70.259094
1430143258448	RAWGYR	-0.0036315918	0.016418457	0.15318298	-0.029434204	0.0035705566	1.6784668E-4
1430143258457	RAWMAG	31.289673	-35.273743	19.914246	21.839905	-32.939148	70.259094
1430143258549	RAWGYR	-0.0057678223	-0.019897461	-0.14161682	-0.029434204	0.0035705566	1.6784668E-4
1430143258559	RAWMAG	30.761719	-34.391785	20.773315	21.839905	-32.939148	70.259094
1430143258649	RAWGYR	-0.010040283	-0.049804688	-0.3915558	-0.029434204	0.0035705566	1.6784668E-4
1430143258659	RAWMAG	29.707336	-35.803223	21.116638	21.839905	-32.939148	70.259094
1430143258750	RAWGYR	-0.01965332	-0.059417725	-0.5752716	-0.029434204	0.0035705566	1.6784668E-4
1430143258760	RAWMAG	29.53186	-35.9787	20.257568	21.839905	-32.939148	70.259094
1430143258851	RAWGYR	-0.045288086	-0.047668457	-0.70451355	-0.029434204	0.0035705566	1.6784668E-4
1430143258861	RAWMAG	28.125	-37.03766	21.975708	21.839905	-32.939148	70.259094
1430143258952	RAWGYR	-0.053833008	-0.03164673	-0.7568512	-0.029434204	0.0035705566	1.6784668E-4
1430143258961	RAWMAG	26.367188	-36.331177	19.570923	21.839905	-32.939148	70.259094
1430143259052	RAWGYR	-0.029266357	-0.03591919	-0.7451019	-0.029434204	0.0035705566	1.6784668E-4
1430143259061	RAWMAG	25.13733	-39.682007	21.803284	21.839905	-32.939148	70.259094
1430143259154	RAWGYR	-0.008972168	-0.07543945	-0.7985077	-0.029434204	0.0035705566	1.6784668E-4
1430143259164	RAWMAG	25.663757	-40.916443	22.31903	21.839905	-32.939148	70.259094
1430143259253	RAWGYR	-0.03353882	-0.09466553	-0.88609314	-0.029434204	0.0035705566	1.6784668E-4
1430143259263	RAWMAG	24.258423	-41.975403	21.287537	21.839905	-32.939148	70.259094
1430143259355	RAWGYR	-0.010040283	-0.07543945	-0.72694397	-0.029434204	0.0035705566	1.6784668E-4
1430143259364	RAWMAG	23.379517	-43.562317	21.45996	21.839905	-32.939148	70.259094
1430143259455	RAWGYR	-0.016448975	-0.012420654	-0.26338196	-0.029434204	0.0035705566	1.6784668E-4
1430143259465	RAWMAG	24.258423	-43.38684	19.570923	21.839905	-32.939148	70.259094
1430143259556	RAWGYR	-0.022857666	0.08157349	0.22581482	-0.029434204	0.0035705566	1.6784668E-4
1430143259566	RAWMAG	25.663757	-40.916443	20.257568	21.839905	-32.939148	70.259094
1430143259656	RAWGYR	-0.031402588	0.12963867	0.55799866	-0.029434204	0.0035705566	1.6784668E-4
1430143259666	RAWMAG	27.246094	-39.32953	19.743347	21.839905	-32.939148	70.259094
1430143259758	RAWGYR	-0.043151855	0.14352417	0.6947174	-0.029434204	0.0035705566	1.6784668E-4
1430143259767	RAWMAG	26.71814	-38.095093	20.944214	21.839905	-32.939148	70.259094
1430143259858	RAWGYR	-0.06665039	0.10934448	0.62635803	-0.029434204	0.0035705566	1.6784668E-4
1430143259867	RAWMAG	28.300476	-38.97705	21.116638	21.839905	-32.939148	70.259094
1430143259958	RAWGYR	-0.050628662	0.03564453	0.3721466	-0.029434204	0.0035705566	1.6784668E-4
1430143259968	RAWMAG	29.003906	-37.919617	20.08667	21.839905	-32.939148	70.259094
1430143260060	RAWGYR	-0.022857666	-0.0028076172	0.19163513	-0.029434204	0.0035705566	1.6784668E-4
1430143260069	RAWMAG	27.774048	-39.154053	20.257568	21.839905	-32.939148	70.259094
1430143260160	RAWGYR	-0.051696777	0.024963379	0.26213074	-0.029434204	0.0035705566	1.6784668E-4
1430143260169	RAWMAG	28.652954	-36.860657	21.116638	21.839905	-32.939148	70.259094
1430143260260	RAWGYR	-0.057037354	0.07409668	0.51420593	-0.029434204	0.0035705566	1.6784668E-4
1430143260270	RAWMAG	29.354858	-37.213135	20.429993	21.839905	-32.939148	70.259094
1430143260362	RAWGYR	-0.0463562	0.101867676	0.73316956	-0.029434204	0.0035705566	1.6784668E-4
1430143260372	RAWMAG	29.53186	-34.56726	20.600891	21.839905	-32.939148	70.259094
1430143260462	RAWGYR	-0.051696777	0.061279297	0.64878845	-0.029434204	0.0035705566	1.6784668E-4
1430143260472	RAWMAG	30.586243	-35.9787	20.600891	21.839905	-32.939148	70.259094
1430143260563	RAWGYR	-0.038879395	-0.011352539	0.2311554	-0.029434204	0.0035705566	1.6784668E-4
1430143260572	RAWMAG	29.003906	-34.039307	19.400024	21.839905	-32.939148	70.259094
1430143260664	RAWGYR	-0.01751709	-0.07116699	-0.27619934	-0.029434204	0.0035705566	1.6784668E-4
1430143260673	RAWMAG	27.774048	-36.683655	20.257568	21.839905	-32.939148	70.259094
1430143260764	RAWGYR	-0.0014953613	-0.1138916	-0.7098541	-0.029434204	0.0035705566	1.6784668E-4
1430143260774	RAWMAG	25.839233	-38.272095	21.116638	21.839905	-32.939148	70.259094
1430143260864	RAWGYR	0.0027770996	-0.11816406	-0.96299744	-0.029434204	0.0035705566	1.6784668E-4
1430143260874	RAWMAG	26.367188	-40.563965	20.944214	21.839905	-32.939148	70.259094
1430143260966	RAWGYR	-0.016448975	-0.09039307	-1.0121307	-0.029434204	0.0035705566	1.6784668E-4
1430143260975	RAWMAG	23.730469	-42.152405	20.773315	21.839905	-32.939148	70.259094
1430143261066	RAWGYR	-0.036743164	-0.063690186	-0.98542786	-0.029434204	0.0035705566	1.6784668E-4
1430143261076	RAWMAG	23.554993	-44.796753	20.257568	21.839905	-32.939148	70.259094
1430143261167	RAWGYR	-0.031402588	-0.063690186	-0.996109	-0.029434204	0.0035705566	1.6784668E-4
1430143261176	RAWMAG	23.554993	-46.20819	20.944214	21.839905	-32.939148	70.259094
1430143261268	RAWGYR	-0.030334473	-0.1000061	-1.0623322	-0.029434204	0.0035705566	1.6784668E-4
1430143261277	RAWMAG	24.08142	-45.326233	21.45996	21.839905	-32.939148	70.259094
1430143261368	RAWGYR	-0.015380859	-0.10321045	-0.940567	-0.029434204	0.0035705566	1.6784668E-4
1430143261378	RAWMAG	23.027039	-47.09015	21.116638	21.839905	-32.939148	70.259094
1430143261469	RAWGYR	-0.012176514	-0.06048584	-0.47273254	-0.029434204	0.0035705566	1.6784668E-4
1430143261478	RAWMAG	22.676086	-45.326233	20.773315	21.839905	-32.939148	70.259094
1430143261570	RAWGYR	-0.027130127	0.05166626	0.0912323	-0.029434204	0.0035705566	1.6784668E-4
1430143261580	RAWMAG	23.730469	-45.67871	19.400024	21.839905	-32.939148	70.259094
1430143261671	RAWGYR	-0.036743164	0.12322998	0.47895813	-0.029434204	0.0035705566	1.6784668E-4
1430143261680	RAWMAG	24.609375	-44.091797	19.570923	21.839905	-32.939148	70.259094
1430143261771	RAWGYR	-0.049560547	0.101867676	0.5590668	-0.029434204	0.0035705566	1.6784668E-4
1430143261781	RAWMAG	25.13733	-42.85736	21.116638	21.839905	-32.939148	70.259094
1430143261872	RAWGYR	-0.04208374	0.0014648438	0.15531921	-0.029434204	0.0035705566	1.6784668E-4
1430143261882	RAWMAG	25.13733	-43.914795	19.743347	21.839905	-32.939148	70.259094
1430143261973	RAWGYR	-0.03994751	0.014282227	0.08695984	-0.029434204	0.0035705566	1.6784668E-4
1430143261982	RAWMAG	25.312805	-44.444275	20.944214	21.839905	-32.939148	70.259094
1430143262073	RAWGYR	-0.027130127	0.048461914	0.096572876	-0.029434204	0.0035705566	1.6784668E-4
1430143262083	RAWMAG	24.433899	-43.914795	19.743347	21.839905	-32.939148	70.259094
1430143262175	RAWGYR	-0.02178955	0.0057373047	-0.09461975	-0.029434204	0.0035705566	1.6784668E-4
1430143262184	RAWMAG	24.258423	-43.73932	21.287537	21.839905	-32.939148	70.259094
1430143262275	RAWGYR	-0.029266357	-0.07116699	-0.43321228	-0.029434204	0.0035705566	1.6784668E-4
1430143262284	RAWMAG	23.905945	-44.091797	20.944214	21.839905	-32.939148	70.259094
1430143262376	RAWGYR	-0.051696777	-0.09573364	-0.6746063	-0.029434204	0.0035705566	1.6784668E-4
1430143262385	RAWMAG	23.730469	-46.385193	21.116638	21.839905	-32.939148	70.259094
1430143262477	RAWGYR	-0.05810547	-0.09039307	-0.61586	-0.029434204	0.0035705566	1.6784668E-4
1430143262486	RAWMAG	23.905945	-46.913147	20.944214	21.839905	-32.939148	70.259094
1430143262577	RAWGYR	-0.04421997	-0.016693115	-0.19715881	-0.029434204	0.0035705566	1.6784668E-4
1430143262586	RAWMAG	24.609375	-47.61963	20.257568	21.839905	-32.939148	70.259094
1430143262678	RAWGYR	-0.043151855	0.08798218	0.27067566	-0.029434204	0.0035705566	1.6784668E-4
1430143262687	RAWMAG	23.554993	-46.56067	21.975708	21.839905	-32.939148	70.259094
1430143262779	RAWGYR	-0.024993896	0.117889404	0.43730164	-0.029434204	0.0035705566	1.6784668E-4
1430143262788	RAWMAG	25.312805	-44.796753	20.257568	21.839905	-32.939148	70.259094
1430143262879	RAWGYR	-0.020721436	0.077301025	0.26106262	-0.029434204	0.0035705566	1.6784668E-4
1430143262889	RAWMAG	23.730469	-47.09015	21.45996	21.839905	-32.939148	70.259094
1430143262980	RAWGYR	-0.034606934	0.010009766	-0.0070343018	-0.029434204	0.0035705566	1.6784668E-4
1430143262989	RAWMAG	23.905945	-44.796753	21.632385	21.839905	-32.939148	70.259094
1430143263081	RAWGYR	-0.09869385	0.022827148	0.0068511963	-0.029434204	0.0035705566	1.6784668E-4
1430143263090	RAWMAG	24.609375	-47.26715	21.287537	21.839905	-32.939148	70.259094
1430143263181	RAWGYR	-0.0068359375	0.05380249	0.18415833	-0.029434204	0.0035705566	1.6784668E-4
1430143263191	RAWMAG	26.367188	-45.150757	20.600891	21.839905	-32.939148	70.259094
1430143263282	RAWGYR	-0.011108398	-0.0134887695	0.10404968	-0.029434204	0.0035705566	1.6784668E-4
1430143263292	RAWMAG	25.13733	-45.326233	21.45996	21.839905	-32.939148	70.259094
1430143263383	RAWGYR	-0.034606934	-0.09359741	-0.22813416	-0.029434204	0.0035705566	1.6784668E-4
1430143263393	RAWMAG	22.851563	-45.150757	20.600891	21.839905	-32.939148	70.259094
1430143263484	RAWGYR	-0.026062012	-0.09680176	-0.45243835	-0.029434204	0.0035705566	1.6784668E-4
1430143263493	RAWMAG	22.323608	-47.795105	20.08667	21.839905	-32.939148	70.259094
1430143263584	RAWGYR	-0.05596924	-0.088256836	-0.643631	-0.029434204	0.0035705566	1.6784668E-4
1430143263594	RAWMAG	24.609375	-48.324585	21.975708	21.839905	-32.939148	70.259094
1430143263685	RAWGYR	-0.047424316	-0.07650757	-0.85832214	-0.029434204	0.0035705566	1.6784668E-4
1430143263695	RAWMAG	24.258423	-50.0885	22.31903	21.839905	-32.939148	70.259094
1430143263786	RAWGYR	-0.061309814	-0.051940918	-0.89356995	-0.029434204	0.0035705566	1.6784668E-4
1430143263795	RAWMAG	23.554993	-51.49994	20.257568	21.839905	-32.939148	70.259094
1430143263886	RAWGYR	-0.038879395	0.00680542	-0.5272064	-0.029434204	0.0035705566	1.6784668E-4
1430143263896	RAWMAG	24.258423	-51.852417	22.31903	21.839905	-32.939148	70.259094
1430143263987	RAWGYR	-0.036743164	0.10079956	0.02394104	-0.029434204	0.0035705566	1.6784668E-4
1430143263997	RAWMAG	25.488281	-51.322937	21.45996	21.839905	-32.939148	70.259094
1430143264088	RAWGYR	-0.050628662	0.14672852	0.357193	-0.029434204	0.0035705566	1.6784668E-4
1430143264098	RAWMAG	24.784851	-48.501587	20.773315	21.839905	-32.939148	70.259094
1430143264189	RAWGYR	-0.049560547	0.10507202	0.34544373	-0.029434204	0.0035705566	1.6784668E-4
1430143264198	RAWMAG	24.433899	-49.55902	20.429993	21.839905	-32.939148	70.259094
1430143264290	RAWGYR	-0.05596924	0.042053223	0.2589264	-0.029434204	0.0035705566	1.6784668E-4
1430143264300	RAWMAG	25.13733	-49.9115	20.429993	21.839905	-32.939148	70.259094
1430143264391	RAWGYR	-0.036743164	0.0335083	0.2866974	-0.029434204	0.0035705566	1.6784668E-4
1430143264400	RAWMAG	24.784851	-48.854065	19.400024	21.839905	-32.939148	70.259094
1430143264491	RAWGYR	-0.052764893	0.03778076	0.3507843	-0.029434204	0.0035705566	1.6784668E-4
1430143264501	RAWMAG	25.312805	-46.913147	19.2276	21.839905	-32.939148	70.259094
1430143264592	RAWGYR	-0.029266357	0.032440186	0.3646698	-0.029434204	0.0035705566	1.6784668E-4
1430143264602	RAWMAG	24.258423	-47.61963	20.600891	21.839905	-32.939148	70.259094
1430143264693	RAWGYR	-0.022857666	-0.0049438477	0.16493225	-0.029434204	0.0035705566	1.6784668E-4
1430143264703	RAWMAG	23.730469	-47.442627	20.429993	21.839905	-32.939148	70.259094
1430143264794	RAWGYR	-0.03353882	-0.055145264	-0.21211243	-0.029434204	0.0035705566	1.6784668E-4
1430143264803	RAWMAG	25.663757	-49.02954	21.632385	21.839905	-32.939148	70.259094
1430143264894	RAWGYR	-0.012176514	-0.08932495	-0.50050354	-0.029434204	0.0035705566	1.6784668E-4
1430143264904	RAWMAG	25.13733	-48.501587	21.116638	21.839905	-32.939148	70.259094
1430143264995	RAWGYR	-0.012176514	-0.07330322	-0.6115875	-0.029434204	0.0035705566	1.6784668E-4
1430143265004	RAWMAG	24.784851	-50.61798	21.116638	21.839905	-32.939148	70.259094
1430143265095	RAWGYR	0.009185791	-0.04446411	-0.62760925	-0.029434204	0.0035705566	1.6784668E-4
1430143265105	RAWMAG	23.379517	-53.086853	21.45996	21.839905	-32.939148	70.259094
1430143265196	RAWGYR	-0.052764893	-0.055145264	-0.5731354	-0.029434204	0.0035705566	1.6784668E-4
1430143265206	RAWMAG	23.554993	-51.49994	22.31903	21.839905	-32.939148	70.259094
1430143265296	RAWGYR	-0.04849243	-0.014556885	-0.28474426	-0.029434204	0.0035705566	1.6784668E-4
1430143265306	RAWMAG	24.960327	-52.557373	21.287537	21.839905	-32.939148	70.259094
1430143265397	RAWGYR	-0.08480835	0.07409668	0.15852356	-0.029434204	0.0035705566	1.6784668E-4
1430143265407	RAWMAG	24.433899	-51.675415	19.743347	21.839905	-32.939148	70.259094
1430143265499	RAWGYR	-0.067718506	0.06982422	0.27174377	-0.029434204	0.0035705566	1.6784668E-4
1430143265508	RAWMAG	23.554993	-51.852417	20.600891	21.839905	-32.939148	70.259094
1430143265599	RAWGYR	-0.04421997	-0.022033691	-0.028396606	-0.029434204	0.0035705566	1.6784668E-4
1430143265608	RAWMAG	23.905945	-51.145935	20.944214	21.839905	-32.939148	70.259094
1430143265699	RAWGYR	-0.015380859	-0.088256836	-0.26338196	-0.029434204	0.0035705566	1.6784668E-4
1430143265709	RAWMAG	23.554993	-53.26233	21.632385	21.839905	-32.939148	70.259094
1430143265801	RAWGYR	0.016662598	-0.1277771	-0.36698914	-0.029434204	0.0035705566	1.6784668E-4
1430143265810	RAWMAG	23.554993	-52.204895	21.975708	21.839905	-32.939148	70.259094
1430143265901	RAWGYR	-0.0014953613	-0.10534668	-0.5688629	-0.029434204	0.0035705566	1.6784668E-4
1430143265911	RAWMAG	24.08142	-54.85077	21.45996	21.839905	-32.939148	70.259094
1430143266001	RAWGYR	-0.04421997	-0.05834961	-0.81773376	-0.029434204	0.0035705566	1.6784668E-4
1430143266011	RAWMAG	24.433899	-56.26068	20.773315	21.839905	-32.939148	70.259094
1430143266102	RAWGYR	-0.083740234	-0.047668457	-1.0164032	-0.029434204	0.0035705566	1.6784668E-4
1430143266112	RAWMAG	25.663757	-59.259033	22.31903	21.839905	-32.939148	70.259094
1430143266203	RAWGYR	-0.0741272	-0.055145264	-1.2310944	-0.029434204	0.0035705566	1.6784668E-4
1430143266213	RAWMAG	28.300476	-60.845947	21.45996	21.839905	-32.939148	70.259094
1430143266303	RAWGYR	-0.09335327	-0.04019165	-1.3528595	-0.029434204	0.0035705566	1.6784668E-4
1430143266313	RAWMAG	27.949524	-61.19995	22.146606	21.839905	-32.939148	70.259094
1430143266405	RAWGYR	-0.03994751	-0.0038757324	-1.2845001	-0.029434204	0.0035705566	1.6784668E-4
1430143266414	RAWMAG	31.816101	-63.316345	20.773315	21.839905	-32.939148	70.259094
1430143266505	RAWGYR	-0.043151855	-0.001739502	-1.0858307	-0.029434204	0.0035705566	1.6784668E-4
1430143266515	RAWMAG	31.465149	-65.078735	23.176575	21.839905	-32.939148	70.259094
1430143266606	RAWGYR	-0.038879395	-0.022033691	-0.83802795	-0.029434204	0.0035705566	1.6784668E-4
1430143266615	RAWMAG	32.870483	-63.668823	21.116638	21.839905	-32.939148	70.259094
1430143266707	RAWGYR	-0.08908081	-0.04446411	-0.54429626	-0.029434204	0.0035705566	1.6784668E-4
1430143266717	RAWMAG	33.22296	-64.72626	22.146606	21.839905	-32.939148	70.259094
1430143266807	RAWGYR	-0.06237793	-0.023101807	-0.19181824	-0.029434204	0.0035705566	1.6784668E-4
1430143266817	RAWMAG	32.870483	-65.078735	21.116638	21.839905	-32.939148	70.259094
1430143266908	RAWGYR	-0.038879395	-0.012420654	0.061325073	-0.029434204	0.0035705566	1.6784668E-4
1430143266918	RAWMAG	31.816101	-64.0213	21.45996	21.839905	-32.939148	70.259094
1430143267009	RAWGYR	-0.08694458	-0.011352539	0.13609314	-0.029434204	0.0035705566	1.6784668E-4
1430143267019	RAWMAG	33.573914	-64.0213	20.773315	21.839905	-32.939148	70.259094
1430143267109	RAWGYR	-0.137146	-0.0049438477	0.1403656	-0.029434204	0.0035705566	1.6784668E-4
1430143267119	RAWMAG	31.289673	-61.02295	21.287537	21.839905	-32.939148	70.259094
1430143267210	RAWGYR	-0.09762573	0.019622803	0.27601624	-0.029434204	0.0035705566	1.6784668E-4
1430143267220	RAWMAG	32.16858	-62.257385	21.803284	21.839905	-32.939148	70.259094
1430143267311	RAWGYR	-0.07519531	0.03564453	0.6188812	-0.029434204	0.0035705566	1.6784668E-4
1430143267321	RAWMAG	30.058289	-61.19995	21.803284	21.839905	-32.939148	70.259094
1430143267412	RAWGYR	0.018798828	0.050598145	0.97029114	-0.029434204	0.0035705566	1.6784668E-4
1430143267421	RAWMAG	29.53186	-61.727905	20.944214	21.839905	-32.939148	70.259094
1430143267512	RAWGYR	0.03375244	0.018554688	1.0931244	-0.029434204	0.0035705566	1.6784668E-4
1430143267522	RAWMAG	29.003906	-60.14099	20.773315	21.839905	-32.939148	70.259094
1430143267615	RAWGYR	-4.272461E-4	-0.016693115	0.72462463	-0.029434204	0.0035705566	1.6784668E-4
1430143267624	RAWMAG	27.42157	-58.554077	21.632385	21.839905	-32.939148	70.259094
1430143267715	RAWGYR	-0.03994751	0.0057373047	0.13929749	-0.029434204	0.0035705566	1.6784668E-4
1430143267724	RAWMAG	27.246094	-58.729553	22.833252	21.839905	-32.939148	70.259094
1430143267815	RAWGYR	-0.031402588	0.020690918	-0.033737183	-0.029434204	0.0035705566	1.6784668E-4
1430143267824	RAWMAG	27.070618	-59.259033	21.632385	21.839905	-32.939148	70.259094
1430143267916	RAWGYR	-0.06665039	0.059143066	0.20658875	-0.029434204	0.0035705566	1.6784668E-4
1430143267925	RAWMAG	25.839233	-57.31964	20.08667	21.839905	-32.939148	70.259094
1430143268016	RAWGYR	-0.0463562	0.061279297	0.2664032	-0.029434204	0.0035705566	1.6784668E-4
1430143268026	RAWMAG	26.71814	-59.259033	20.944214	21.839905	-32.939148	70.259094
1430143268117	RAWGYR	0.03375244	0.0057373047	-0.026260376	-0.029434204	0.0035705566	1.6784668E-4
1430143268127	RAWMAG	27.070618	-59.61151	21.287537	21.839905	-32.939148	70.259094
1430143268218	RAWGYR	0.07006836	-0.0786438	-0.39476013	-0.029434204	0.0035705566	1.6784668E-4
1430143268228	RAWMAG	27.949524	-59.436035	21.803284	21.839905	-32.939148	70.259094
1430143268318	RAWGYR	0.022003174	-0.08505249	-0.5453644	-0.029434204	0.0035705566	1.6784668E-4
1430143268327	RAWMAG	28.475952	-61.02295	23.348999	21.839905	-32.939148	70.259094
1430143268419	RAWGYR	-0.015380859	-0.065826416	-0.43641663	-0.029434204	0.0035705566	1.6784668E-4
1430143268428	RAWMAG	30.233765	-61.02295	22.31903	21.839905	-32.939148	70.259094
1430143268520	RAWGYR	-0.052764893	-0.0028076172	-0.26979065	-0.029434204	0.0035705566	1.6784668E-4
1430143268530	RAWMAG	28.82843	-61.727905	21.287537	21.839905	-32.939148	70.259094
1430143268620	RAWGYR	-0.088012695	0.08798218	0.0634613	-0.029434204	0.0035705566	1.6784668E-4
1430143268630	RAWMAG	28.652954	-59.788513	21.45996	21.839905	-32.939148	70.259094
1430143268721	RAWGYR	-0.10296631	0.14779663	0.43089294	-0.029434204	0.0035705566	1.6784668E-4
1430143268731	RAWMAG	29.003906	-60.845947	22.146606	21.839905	-32.939148	70.259094
1430143268822	RAWGYR	-0.04208374	0.06982422	0.33796692	-0.029434204	0.0035705566	1.6784668E-4
1430143268832	RAWMAG	29.707336	-59.436035	21.803284	21.839905	-32.939148	70.259094
1430143268923	RAWGYR	0.017730713	-0.06796265	-0.18006897	-0.029434204	0.0035705566	1.6784668E-4
1430143268932	RAWMAG	29.354858	-60.49347	20.773315	21.839905	-32.939148	70.259094
1430143269023	RAWGYR	0.0017089844	-0.11175537	-0.5378876	-0.029434204	0.0035705566	1.6784668E-4
1430143269033	RAWMAG	29.707336	-61.904907	21.116638	21.839905	-32.939148	70.259094
1430143269124	RAWGYR	-0.06878662	-0.059417725	-0.50157166	-0.029434204	0.0035705566	1.6784668E-4
1430143269133	RAWMAG	30.410767	-61.55243	21.803284	21.839905	-32.939148	70.259094
1430143269224	RAWGYR	-0.09121704	0.042053223	-0.2740631	-0.029434204	0.0035705566	1.6784668E-4
1430143269234	RAWMAG	30.937195	-62.434387	20.944214	21.839905	-32.939148	70.259094
1430143269325	RAWGYR	-0.049560547	0.08050537	-0.12025452	-0.029434204	0.0035705566	1.6784668E-4
1430143269335	RAWMAG	31.991577	-62.434387	21.632385	21.839905	-32.939148	70.259094
1430143269427	RAWGYR	0.017730713	-0.028442383	-0.300766	-0.029434204	0.0035705566	1.6784668E-4
1430143269436	RAWMAG	30.761719	-64.0213	21.803284	21.839905	-32.939148	70.259094
1430143269527	RAWGYR	0.055114746	-0.13311768	-0.70558167	-0.029434204	0.0035705566	1.6784668E-4
1430143269536	RAWMAG	31.465149	-64.72626	21.803284	21.839905	-32.939148	70.259094
1430143269627	RAWGYR	-0.0025634766	-0.12350464	-0.9042511	-0.029434204	0.0035705566	1.6784668E-4
1430143269637	RAWMAG	33.398438	-65.96069	21.975708	21.839905	-32.939148	70.259094
1430143269729	RAWGYR	-0.015380859	-0.11175537	-0.83802795	-0.029434204	0.0035705566	1.6784668E-4
1430143269738	RAWMAG	34.277344	-63.668823	22.48993	21.839905	-32.939148	70.259094
1430143269829	RAWGYR	-0.01965332	-0.050872803	-0.66819763	-0.029434204	0.0035705566	1.6784668E-4
1430143269838	RAWMAG	36.035156	-66.49017	23.176575	21.839905	-32.939148	70.259094
1430143269930	RAWGYR	-0.05596924	0.026031494	-0.4898224	-0.029434204	0.0035705566	1.6784668E-4
1430143269939	RAWMAG	35.85968	-66.3147	22.31903	21.839905	-32.939148	70.259094
1430143270031	RAWGYR	-0.07519531	0.03778076	-0.44602966	-0.029434204	0.0035705566	1.6784668E-4
1430143270040	RAWMAG	37.265015	-65.96069	21.632385	21.839905	-32.939148	70.259094
1430143270131	RAWGYR	-0.053833008	3.9672852E-4	-0.5528412	-0.029434204	0.0035705566	1.6784668E-4
1430143270141	RAWMAG	38.671875	-65.96069	21.632385	21.839905	-32.939148	70.259094
1430143270232	RAWGYR	-0.051696777	-0.022033691	-0.5902252	-0.029434204	0.0035705566	1.6784668E-4
1430143270242	RAWMAG	39.19983	-66.137695	21.803284	21.839905	-32.939148	70.259094
1430143270333	RAWGYR	-0.049560547	-0.081848145	-0.57740784	-0.029434204	0.0035705566	1.6784668E-4
1430143270342	RAWMAG	39.901733	-66.84265	22.48993	21.839905	-32.939148	70.259094
1430143270433	RAWGYR	-0.027130127	-0.020965576	-0.5133209	-0.029434204	0.0035705566	1.6784668E-4
1430143270443	RAWMAG	41.836548	-65.96069	21.975708	21.839905	-32.939148	70.259094
1430143270534	RAWGYR	-0.1232605	0.06661987	-0.20463562	-0.029434204	0.0035705566	1.6784668E-4
1430143270544	RAWMAG	40.429688	-65.96069	20.944214	21.839905	-32.939148	70.259094
1430143270635	RAWGYR	-0.12539673	0.05166626	0.23542786	-0.029434204	0.0035705566	1.6784668E-4
1430143270644	RAWMAG	39.375305	-66.3147	21.975708	21.839905	-32.939148	70.259094
1430143270736	RAWGYR	-0.03994751	0.08477783	0.672287	-0.029434204	0.0035705566	1.6784668E-4
1430143270746	RAWMAG	38.320923	-65.25574	20.600891	21.839905	-32.939148	70.259094
1430143270836	RAWGYR	0.016662598	0.06555176	0.941452	-0.029434204	0.0035705566	1.6784668E-4
1430143270846	RAWMAG	37.265015	-64.55078	22.662354	21.839905	-32.939148	70.259094
1430143270937	RAWGYR	-0.02178955	-0.0028076172	0.93611145	-0.029434204	0.0035705566	1.6784668E-4
1430143270946	RAWMAG	34.277344	-64.37378	21.116638	21.839905	-32.939148	70.259094
1430143271038	RAWGYR	-0.023925781	0.013214111	0.7588043	-0.029434204	0.0035705566	1.6784668E-4
1430143271048	RAWMAG	34.101868	-64.90326	21.975708	21.839905	-32.939148	70.259094
1430143271138	RAWGYR	-0.03781128	0.022827148	0.5814972	-0.029434204	0.0035705566	1.6784668E-4
1430143271147	RAWMAG	33.573914	-65.78522	20.429993	21.839905	-32.939148	70.259094
1430143271239	RAWGYR	-0.043151855	0.034576416	0.53022766	-0.029434204	0.0035705566	1.6784668E-4
1430143271248	RAWMAG	32.51953	-63.668823	21.45996	21.839905	-32.939148	70.259094
1430143271340	RAWGYR	-0.011108398	0.046325684	0.61994934	-0.029434204	0.0035705566	1.6784668E-4
1430143271349	RAWMAG	31.640625	-62.786865	22.31903	21.839905	-32.939148	70.259094
1430143271440	RAWGYR	-0.031402588	0.028167725	0.69151306	-0.029434204	0.0035705566	1.6784668E-4
1430143271451	RAWMAG	30.410767	-62.257385	23.176575	21.839905	-32.939148	70.259094
1430143271541	RAWGYR	-0.032470703	0.06341553	0.7940521	-0.029434204	0.0035705566	1.6784668E-4
1430143271551	RAWMAG	29.882813	-62.786865	21.975708	21.839905	-32.939148	70.259094
1430143271642	RAWGYR	-0.024993896	0.08157349	0.92329407	-0.029434204	0.0035705566	1.6784668E-4
1430143271652	RAWMAG	27.246094	-60.49347	21.803284	21.839905	-32.939148	70.259094
1430143271742	RAWGYR	-0.04849243	0.075164795	0.9254303	-0.029434204	0.0035705566	1.6784668E-4
1430143271752	RAWMAG	26.895142	-57.67212	22.146606	21.839905	-32.939148	70.259094
1430143271843	RAWGYR	-0.06665039	0.054870605	0.79618835	-0.029434204	0.0035705566	1.6784668E-4
1430143271853	RAWMAG	26.71814	-57.84912	21.975708	21.839905	-32.939148	70.259094
1430143271944	RAWGYR	-0.031402588	0.013214111	0.57936096	-0.029434204	0.0035705566	1.6784668E-4
1430143271954	RAWMAG	25.663757	-57.84912	22.662354	21.839905	-32.939148	70.259094
1430143272045	RAWGYR	-0.03353882	-0.024169922	0.2247467	-0.029434204	0.0035705566	1.6784668E-4
1430143272054	RAWMAG	26.71814	-58.2016	21.632385	21.839905	-32.939148	70.259094
1430143272145	RAWGYR	-0.004699707	-0.04660034	-0.18861389	-0.029434204	0.0035705566	1.6784668E-4
1430143272155	RAWMAG	26.367188	-59.61151	23.005676	21.839905	-32.939148	70.259094
1430143272246	RAWGYR	-0.013244629	-0.07543945	-0.42893982	-0.029434204	0.0035705566	1.6784668E-4
1430143272256	RAWMAG	25.13733	-59.436035	21.803284	21.839905	-32.939148	70.259094
1430143272347	RAWGYR	-0.03781128	-0.05407715	-0.39048767	-0.029434204	0.0035705566	1.6784668E-4
1430143272356	RAWMAG	25.13733	-59.436035	22.833252	21.839905	-32.939148	70.259094
1430143272447	RAWGYR	-0.028198242	0.036712646	-0.07218933	-0.029434204	0.0035705566	1.6784668E-4
1430143272457	RAWMAG	27.070618	-59.259033	21.632385	21.839905	-32.939148	70.259094
1430143272549	RAWGYR	-0.047424316	0.10079956	0.31874084	-0.029434204	0.0035705566	1.6784668E-4
1430143272558	RAWMAG	26.542664	-59.436035	22.146606	21.839905	-32.939148	70.259094
1430143272649	RAWGYR	-0.036743164	0.05593872	0.36360168	-0.029434204	0.0035705566	1.6784668E-4
1430143272659	RAWMAG	25.312805	-58.554077	21.287537	21.839905	-32.939148	70.259094
1430143272750	RAWGYR	-0.01965332	-0.022033691	0.16386414	-0.029434204	0.0035705566	1.6784668E-4
1430143272759	RAWMAG	26.71814	-57.14264	20.257568	21.839905	-32.939148	70.259094
1430143272851	RAWGYR	-0.051696777	-0.007080078	0.1959076	-0.029434204	0.0035705566	1.6784668E-4
1430143272860	RAWMAG	24.609375	-58.2016	21.287537	21.839905	-32.939148	70.259094
1430143272951	RAWGYR	-0.08908081	0.0473938	0.46720886	-0.029434204	0.0035705566	1.6784668E-4
1430143272961	RAWMAG	25.13733	-55.203247	21.803284	21.839905	-32.939148	70.259094
1430143273052	RAWGYR	-0.08053589	0.077301025	0.7417145	-0.029434204	0.0035705566	1.6784668E-4
1430143273061	RAWMAG	23.730469	-54.496765	21.803284	21.839905	-32.939148	70.259094
1430143273153	RAWGYR	-0.063446045	0.057006836	0.7993927	-0.029434204	0.0035705566	1.6784668E-4
1430143273163	RAWMAG	23.554993	-53.26233	20.600891	21.839905	-32.939148	70.259094
1430143273253	RAWGYR	-0.07839966	0.052734375	0.7716217	-0.029434204	0.0035705566	1.6784668E-4
1430143273263	RAWMAG	23.027039	-50.97046	21.116638	21.839905	-32.939148	70.259094
1430143273354	RAWGYR	-0.059173584	0.05807495	0.83036804	-0.029434204	0.0035705566	1.6784668E-4
1430143273363	RAWMAG	22.323608	-49.9115	21.116638	21.839905	-32.939148	70.259094
1430143273455	RAWGYR	-0.047424316	0.023895264	0.7449188	-0.029434204	0.0035705566	1.6784668E-4
1430143273465	RAWMAG	23.554993	-48.324585	21.632385	21.839905	-32.939148	70.259094
1430143273555	RAWGYR	-0.030334473	-0.012420654	0.38923645	-0.029434204	0.0035705566	1.6784668E-4
1430143273565	RAWMAG	23.554993	-48.677063	21.632385	21.839905	-32.939148	70.259094
1430143273656	RAWGYR	-0.020721436	-0.04232788	-0.044418335	-0.029434204	0.0035705566	1.6784668E-4
1430143273666	RAWMAG	21.269226	-49.206543	21.116638	21.839905	-32.939148	70.259094
1430143273757	RAWGYR	-0.053833008	-0.028442383	-0.21424866	-0.029434204	0.0035705566	1.6784668E-4
1430143273767	RAWMAG	23.379517	-50.263977	22.146606	21.839905	-32.939148	70.259094
1430143273858	RAWGYR	-0.034606934	-0.034851074	-0.26872253	-0.029434204	0.0035705566	1.6784668E-4
1430143273867	RAWMAG	23.027039	-51.322937	21.45996	21.839905	-32.939148	70.259094
1430143273958	RAWGYR	0.0059814453	-0.041259766	-0.4075775	-0.029434204	0.0035705566	1.6784668E-4
1430143273968	RAWMAG	22.323608	-52.734375	22.48993	21.839905	-32.939148	70.259094
1430143274060	RAWGYR	-0.01751709	-0.019897461	-0.5613861	-0.029434204	0.0035705566	1.6784668E-4
1430143274069	RAWMAG	23.730469	-54.144287	21.803284	21.839905	-32.939148	70.259094
1430143274160	RAWGYR	-0.038879395	-0.018829346	-0.6297455	-0.029434204	0.0035705566	1.6784668E-4
1430143274169	RAWMAG	23.027039	-53.086853	21.803284	21.839905	-32.939148	70.259094
1430143274260	RAWGYR	-0.01751709	-0.025238037	-0.6746063	-0.029434204	0.0035705566	1.6784668E-4
1430143274270	RAWMAG	24.258423	-56.437683	21.632385	21.839905	-32.939148	70.259094
1430143274361	RAWGYR	-0.022857666	-0.027374268	-0.7301483	-0.029434204	0.0035705566	1.6784668E-4
1430143274371	RAWMAG	24.433899	-55.555725	21.45996	21.839905	-32.939148	70.259094
1430143274462	RAWGYR	-0.020721436	-0.03805542	-0.7632599	-0.029434204	0.0035705566	1.6784668E-4
1430143274472	RAWMAG	25.663757	-59.965515	21.287537	21.839905	-32.939148	70.259094
1430143274563	RAWGYR	-0.034606934	-0.039123535	-0.73335266	-0.029434204	0.0035705566	1.6784668E-4
1430143274572	RAWMAG	26.895142	-59.083557	21.803284	21.839905	-32.939148	70.259094
1430143274664	RAWGYR	-0.034606934	-0.014556885	-0.56352234	-0.029434204	0.0035705566	1.6784668E-4
1430143274673	RAWMAG	27.246094	-60.14099	20.429993	21.839905	-32.939148	70.259094
1430143274764	RAWGYR	-0.036743164	0.0046691895	-0.16297913	-0.029434204	0.0035705566	1.6784668E-4
1430143274774	RAWMAG	26.016235	-59.965515	21.975708	21.839905	-32.939148	70.259094
1430143274865	RAWGYR	-0.07733154	0.023895264	0.28349304	-0.029434204	0.0035705566	1.6784668E-4
1430143274874	RAWMAG	26.016235	-57.495117	22.31903	21.839905	-32.939148	70.259094
1430143274966	RAWGYR	-0.090148926	0.046325684	0.55158997	-0.029434204	0.0035705566	1.6784668E-4
1430143274976	RAWMAG	23.905945	-55.732727	21.975708	21.839905	-32.939148	70.259094
1430143275066	RAWGYR	-0.054901123	0.046325684	0.7064667	-0.029434204	0.0035705566	1.6784668E-4
1430143275076	RAWMAG	21.972656	-54.144287	21.45996	21.839905	-32.939148	70.259094
1430143275167	RAWGYR	-0.043151855	0.059143066	0.8292999	-0.029434204	0.0035705566	1.6784668E-4
1430143275176	RAWMAG	23.730469	-52.734375	21.803284	21.839905	-32.939148	70.259094
1430143275268	RAWGYR	-0.04421997	0.09118652	0.9264984	-0.029434204	0.0035705566	1.6784668E-4
1430143275277	RAWMAG	25.663757	-50.793457	21.632385	21.839905	-32.939148	70.259094
1430143275368	RAWGYR	-0.050628662	0.097595215	1.0172882	-0.029434204	0.0035705566	1.6784668E-4
1430143275378	RAWMAG	22.851563	-49.736023	21.632385	21.839905	-32.939148	70.259094
1430143275469	RAWGYR	-0.05596924	0.09225464	1.0674896	-0.029434204	0.0035705566	1.6784668E-4
1430143275479	RAWMAG	21.621704	-46.385193	20.08667	21.839905	-32.939148	70.259094
1430143275571	RAWGYR	-0.03781128	0.095458984	1.0888519	-0.029434204	0.0035705566	1.6784668E-4
1430143275580	RAWMAG	24.609375	-45.150757	20.600891	21.839905	-32.939148	70.259094
1430143275671	RAWGYR	-0.063446045	0.08157349	1.08992	-0.029434204	0.0035705566	1.6784668E-4
1430143275680	RAWMAG	25.13733	-43.20984	20.773315	21.839905	-32.939148	70.259094
1430143275772	RAWGYR	-0.07733154	0.07836914	1.1219635	-0.029434204	0.0035705566	1.6784668E-4
1430143275781	RAWMAG	26.367188	-40.916443	19.914246	21.839905	-32.939148	70.259094
1430143275872	RAWGYR	-0.06878662	0.06768799	1.1668243	-0.029434204	0.0035705566	1.6784668E-4
1430143275882	RAWMAG	26.71814	-39.50653	19.914246	21.839905	-32.939148	70.259094
1430143275973	RAWGYR	-0.067718506	0.06555176	1.1871185	-0.029434204	0.0035705566	1.6784668E-4
1430143275983	RAWMAG	27.070618	-38.44757	20.944214	21.839905	-32.939148	70.259094
1430143276073	RAWGYR	-0.051696777	0.08477783	1.1475983	-0.029434204	0.0035705566	1.6784668E-4
1430143276083	RAWMAG	28.652954	-37.565613	20.08667	21.839905	-32.939148	70.259094
1430143276174	RAWGYR	-0.061309814	0.07623291	0.941452	-0.029434204	0.0035705566	1.6784668E-4
1430143276184	RAWMAG	27.597046	-36.50818	21.116638	21.839905	-32.939148	70.259094
1430143276275	RAWGYR	-0.059173584	0.032440186	0.6178131	-0.029434204	0.0035705566	1.6784668E-4
1430143276285	RAWMAG	28.82843	-35.9787	19.914246	21.839905	-32.939148	70.259094
1430143276375	RAWGYR	-0.06665039	-0.010284424	0.23435974	-0.029434204	0.0035705566	1.6784668E-4
1430143276385	RAWMAG	28.82843	-34.56726	20.944214	21.839905	-32.939148	70.259094
1430143276476	RAWGYR	-0.051696777	-0.045532227	-0.20249939	-0.029434204	0.0035705566	1.6784668E-4
1430143276485	RAWMAG	28.475952	-34.214783	19.570923	21.839905	-32.939148	70.259094
1430143276577	RAWGYR	-0.01965332	-0.059417725	-0.50691223	-0.029434204	0.0035705566	1.6784668E-4
1430143276587	RAWMAG	26.71814	-37.03766	20.944214	21.839905	-32.939148	70.259094
1430143276678	RAWGYR	-0.03353882	-0.027374268	-0.59236145	-0.029434204	0.0035705566	1.6784668E-4
1430143276687	RAWMAG	24.784851	-36.860657	20.08667	21.839905	-32.939148	70.259094
1430143276778	RAWGYR	-0.028198242	-6.713867E-4	-0.5314789	-0.029434204	0.0035705566	1.6784668E-4
1430143276788	RAWMAG	26.542664	-39.32953	20.773315	21.839905	-32.939148	70.259094
1430143276880	RAWGYR	-0.0463562	0.00894165	-0.22813416	-0.029434204	0.0035705566	1.6784668E-4
1430143276890	RAWMAG	24.784851	-37.565613	21.116638	21.839905	-32.939148	70.259094
1430143276980	RAWGYR	-0.03994751	0.028167725	0.15638733	-0.029434204	0.0035705566	1.6784668E-4
1430143276990	RAWMAG	26.895142	-38.272095	20.08667	21.839905	-32.939148	70.259094
1430143277081	RAWGYR	-0.015380859	0.036712646	0.26106262	-0.029434204	0.0035705566	1.6784668E-4
1430143277091	RAWMAG	27.070618	-37.03766	18.884277	21.839905	-32.939148	70.259094
1430143277182	RAWGYR	-0.01751709	0.030303955	0.0079193115	-0.029434204	0.0035705566	1.6784668E-4
1430143277191	RAWMAG	26.191711	-38.97705	21.116638	21.839905	-32.939148	70.259094
1430143277282	RAWGYR	-0.027130127	0.0046691895	-0.31251526	-0.029434204	0.0035705566	1.6784668E-4
1430143277292	RAWMAG	24.784851	-39.32953	21.803284	21.839905	-32.939148	70.259094
1430143277383	RAWGYR	-0.024993896	-0.043395996	-0.6169281	-0.029434204	0.0035705566	1.6784668E-4
1430143277393	RAWMAG	24.609375	-39.85901	20.257568	21.839905	-32.939148	70.259094
1430143277484	RAWGYR	-0.013244629	-0.051940918	-0.90104675	-0.029434204	0.0035705566	1.6784668E-4
1430143277494	RAWMAG	22.50061	-43.032837	21.632385	21.839905	-32.939148	70.259094
1430143277584	RAWGYR	-0.03567505	-0.05834961	-1.0067902	-0.029434204	0.0035705566	1.6784668E-4
1430143277594	RAWMAG	23.905945	-43.032837	21.287537	21.839905	-32.939148	70.259094
1430143277685	RAWGYR	-0.047424316	-0.045532227	-0.8540497	-0.029434204	0.0035705566	1.6784668E-4
1430143277694	RAWMAG	24.784851	-43.562317	21.116638	21.839905	-32.939148	70.259094
1430143277786	RAWGYR	-0.027130127	-0.025238037	-0.54963684	-0.029434204	0.0035705566	1.6784668E-4
1430143277796	RAWMAG	23.905945	-44.796753	20.257568	21.839905	-32.939148	70.259094
1430143277886	RAWGYR	-0.032470703	0.0687561	-0.07752991	-0.029434204	0.0035705566	1.6784668E-4
1430143277896	RAWMAG	24.960327	-42.68036	21.632385	21.839905	-32.939148	70.259094
1430143277987	RAWGYR	-0.10510254	0.1381836	0.48109436	-0.029434204	0.0035705566	1.6784668E-4
1430143277997	RAWMAG	24.609375	-41.622925	20.600891	21.839905	-32.939148	70.259094
1430143278088	RAWGYR	-0.07839966	0.15634155	0.79618835	-0.029434204	0.0035705566	1.6784668E-4
1430143278098	RAWMAG	26.191711	-40.740967	18.713379	21.839905	-32.939148	70.259094
1430143278189	RAWGYR	-0.057037354	0.11254883	1.0578766	-0.029434204	0.0035705566	1.6784668E-4
1430143278198	RAWMAG	27.246094	-38.272095	19.743347	21.839905	-32.939148	70.259094
1430143278289	RAWGYR	-0.057037354	0.03564453	1.2501373	-0.029434204	0.0035705566	1.6784668E-4
1430143278299	RAWMAG	29.179382	-36.331177	19.914246	21.839905	-32.939148	70.259094
1430143278390	RAWGYR	-0.045288086	0.023895264	1.3644257	-0.029434204	0.0035705566	1.6784668E-4
1430143278400	RAWMAG	28.652954	-35.44922	20.773315	21.839905	-32.939148	70.259094
1430143278491	RAWGYR	-0.0463562	0.048461914	1.3836517	-0.029434204	0.0035705566	1.6784668E-4
1430143278500	RAWMAG	32.695007	-34.921265	19.914246	21.839905	-32.939148	70.259094
1430143278592	RAWGYR	-0.07733154	0.054870605	1.3238373	-0.029434204	0.0035705566	1.6784668E-4
1430143278601	RAWMAG	34.805298	-32.09839	21.287537	21.839905	-32.939148	70.259094
1430143278693	RAWGYR	-0.08053589	0.040985107	1.173233	-0.029434204	0.0035705566	1.6784668E-4
1430143278703	RAWMAG	34.628296	-32.27539	19.400024	21.839905	-32.939148	70.259094
1430143278793	RAWGYR	-0.088012695	-0.018829346	0.7716217	-0.029434204	0.0035705566	1.6784668E-4
1430143278802	RAWMAG	33.92639	-32.62787	20.429993	21.839905	-32.939148	70.259094
1430143278893	RAWGYR	-0.088012695	-0.07223511	0.18309021	-0.029434204	0.0035705566	1.6784668E-4
1430143278903	RAWMAG	33.573914	-31.21643	19.056702	21.839905	-32.939148	70.259094
1430143278995	RAWGYR	-0.07733154	-0.106414795	-0.34028625	-0.029434204	0.0035705566	1.6784668E-4
1430143279004	RAWMAG	30.761719	-32.980347	19.400024	21.839905	-32.939148	70.259094
1430143279095	RAWGYR	-0.036743164	-0.12350464	-0.699173	-0.029434204	0.0035705566	1.6784668E-4
1430143279104	RAWMAG	29.882813	-32.09839	21.975708	21.839905	-32.939148	70.259094
1430143279195	RAWGYR	-0.03567505	-0.11175537	-0.8262787	-0.029434204	0.0035705566	1.6784668E-4
1430143279205	RAWMAG	28.300476	-34.039307	20.08667	21.839905	-32.939148	70.259094
1430143279297	RAWGYR	-0.027130127	-0.06796265	-0.68421936	-0.029434204	0.0035705566	1.6784668E-4
1430143279306	RAWMAG	28.475952	-34.214783	20.257568	21.839905	-32.939148	70.259094
1430143279397	RAWGYR	-0.038879395	-0.029510498	-0.36164856	-0.029434204	0.0035705566	1.6784668E-4
1430143279407	RAWMAG	26.71814	-35.62622	20.600891	21.839905	-32.939148	70.259094
1430143279497	RAWGYR	-0.03353882	-0.019897461	-0.20036316	-0.029434204	0.0035705566	1.6784668E-4
1430143279507	RAWMAG	26.191711	-35.803223	21.116638	21.839905	-32.939148	70.259094
1430143279598	RAWGYR	-0.020721436	-0.047668457	-0.31144714	-0.029434204	0.0035705566	1.6784668E-4
1430143279608	RAWMAG	26.367188	-35.62622	19.914246	21.839905	-32.939148	70.259094
1430143279699	RAWGYR	0.009185791	-0.07437134	-0.5816803	-0.029434204	0.0035705566	1.6784668E-4
1430143279709	RAWMAG	25.312805	-37.390137	20.944214	21.839905	-32.939148	70.259094
1430143279800	RAWGYR	-0.014312744	-0.026306152	-0.5966339	-0.029434204	0.0035705566	1.6784668E-4
1430143279809	RAWMAG	26.367188	-37.03766	19.914246	21.839905	-32.939148	70.259094
1430143279901	RAWGYR	-0.012176514	0.036712646	-0.07859802	-0.029434204	0.0035705566	1.6784668E-4
1430143279911	RAWMAG	26.191711	-36.50818	21.803284	21.839905	-32.939148	70.259094
1430143280001	RAWGYR	-0.023925781	0.057006836	0.45332336	-0.029434204	0.0035705566	1.6784668E-4
1430143280011	RAWMAG	27.42157	-34.214783	20.600891	21.839905	-32.939148	70.259094
1430143280102	RAWGYR	-0.018585205	0.06448364	0.72676086	-0.029434204	0.0035705566	1.6784668E-4
1430143280111	RAWMAG	28.475952	-34.56726	21.632385	21.839905	-32.939148	70.259094
1430143280203	RAWGYR	0.015594482	0.061279297	0.9104767	-0.029434204	0.0035705566	1.6784668E-4
1430143280213	RAWMAG	31.816101	-32.980347	21.803284	21.839905	-32.939148	70.259094
1430143280304	RAWGYR	-0.0014953613	0.054870605	0.9745636	-0.029434204	0.0035705566	1.6784668E-4
1430143280313	RAWMAG	31.465149	-32.62787	20.429993	21.839905	-32.939148	70.259094
1430143280404	RAWGYR	-0.09335327	0.030303955	0.67549133	-0.029434204	0.0035705566	1.6784668E-4
1430143280414	RAWMAG	29.707336	-31.922913	20.08667	21.839905	-32.939148	70.259094
1430143280506	RAWGYR	-0.007904053	-6.713867E-4	0.33903503	-0.029434204	0.0035705566	1.6784668E-4
1430143280515	RAWMAG	31.816101	-30.863953	20.429993	21.839905	-32.939148	70.259094
1430143280606	RAWGYR	0.014526367	-0.032714844	0.060256958	-0.029434204	0.0035705566	1.6784668E-4
1430143280615	RAWMAG	31.289673	-32.450867	21.975708	21.839905	-32.939148	70.259094
1430143280706	RAWGYR	-0.04849243	-0.024169922	-0.15336609	-0.029434204	0.0035705566	1.6784668E-4
1430143280716	RAWMAG	32.51953	-32.27539	20.429993	21.839905	-32.939148	70.259094
1430143280808	RAWGYR	-0.03353882	0.012145996	0.043167114	-0.029434204	0.0035705566	1.6784668E-4
1430143280817	RAWMAG	32.51953	-32.27539	20.429993	21.839905	-32.939148	70.259094
1430143280908	RAWGYR	-0.02178955	0.05593872	0.42662048	-0.029434204	0.0035705566	1.6784668E-4
1430143280917	RAWMAG	33.74939	-31.393433	21.632385	21.839905	-32.939148	70.259094
1430143281008	RAWGYR	-0.036743164	0.057006836	0.7075348	-0.029434204	0.0035705566	1.6784668E-4
1430143281018	RAWMAG	35.507202	-31.393433	21.975708	21.839905	-32.939148	70.259094
1430143281110	RAWGYR	0.0027770996	0.048461914	0.85279846	-0.029434204	0.0035705566	1.6784668E-4
1430143281119	RAWMAG	36.738586	-29.45404	22.146606	21.839905	-32.939148	70.259094
1430143281210	RAWGYR	0.0017089844	0.0826416	0.8827057	-0.029434204	0.0035705566	1.6784668E-4
1430143281220	RAWMAG	37.442017	-32.27539	20.08667	21.839905	-32.939148	70.259094
1430143281310	RAWGYR	-0.016448975	0.124298096	0.92222595	-0.029434204	0.0035705566	1.6784668E-4
1430143281320	RAWMAG	39.901733	-31.570435	21.45996	21.839905	-32.939148	70.259094
1430143281413	RAWGYR	-0.032470703	0.12536621	0.9179535	-0.029434204	0.0035705566	1.6784668E-4
1430143281422	RAWMAG	42.89093	-31.393433	19.570923	21.839905	-32.939148	70.259094
1430143281512	RAWGYR	-0.036743164	0.052734375	0.7235565	-0.029434204	0.0035705566	1.6784668E-4
1430143281522	RAWMAG	42.715454	-33.332825	20.429993	21.839905	-32.939148	70.259094
1430143281613	RAWGYR	-0.07305908	0.017486572	0.46507263	-0.029434204	0.0035705566	1.6784668E-4
1430143281623	RAWMAG	43.41736	-32.27539	21.45996	21.839905	-32.939148	70.259094
1430143281715	RAWGYR	-0.0014953613	0.050598145	0.39030457	-0.029434204	0.0035705566	1.6784668E-4
1430143281724	RAWMAG	43.066406	-31.570435	20.773315	21.839905	-32.939148	70.259094
1430143281814	RAWGYR	0.00491333	0.06661987	0.50138855	-0.029434204	0.0035705566	1.6784668E-4
1430143281824	RAWMAG	46.406555	-33.862305	21.632385	21.839905	-32.939148	70.259094
1430143281915	RAWGYR	-0.053833008	0.10827637	0.7491913	-0.029434204	0.0035705566	1.6784668E-4
1430143281924	RAWMAG	47.28546	-32.980347	21.45996	21.839905	-32.939148	70.259094
1430143282016	RAWGYR	-0.049560547	0.08798218	0.8848419	-0.029434204	0.0035705566	1.6784668E-4
1430143282026	RAWMAG	49.569702	-34.214783	20.944214	21.839905	-32.939148	70.259094
1430143282116	RAWGYR	-0.041015625	0.03564453	0.7417145	-0.029434204	0.0035705566	1.6784668E-4
1430143282126	RAWMAG	48.867798	-33.15735	21.975708	21.839905	-32.939148	70.259094
1430143282217	RAWGYR	-0.03781128	-0.06262207	0.25679016	-0.029434204	0.0035705566	1.6784668E-4
1430143282227	RAWMAG	49.746704	-34.744263	21.803284	21.839905	-32.939148	70.259094
1430143282318	RAWGYR	-0.010040283	-0.12243652	-0.34135437	-0.029434204	0.0035705566	1.6784668E-4
1430143282327	RAWMAG	48.164368	-34.56726	20.257568	21.839905	-32.939148	70.259094
1430143282418	RAWGYR	-0.04421997	-0.12670898	-0.7792816	-0.029434204	0.0035705566	1.6784668E-4
1430143282428	RAWMAG	45.8786	-32.980347	21.116638	21.839905	-32.939148	70.259094
1430143282519	RAWGYR	-0.04849243	-0.12564087	-1.0922394	-0.029434204	0.0035705566	1.6784668E-4
1430143282529	RAWMAG	42.362976	-31.570435	20.773315	21.839905	-32.939148	70.259094
1430143282620	RAWGYR	-0.08267212	-0.061553955	-1.1958466	-0.029434204	0.0035705566	1.6784668E-4
1430143282631	RAWMAG	40.078735	-31.393433	21.287537	21.839905	-32.939148	70.259094
1430143282721	RAWGYR	-0.09762573	0.012145996	-0.85084534	-0.029434204	0.0035705566	1.6784668E-4
1430143282731	RAWMAG	41.308594	-29.806519	20.773315	21.839905	-32.939148	70.259094
1430143282821	RAWGYR	-0.03567505	0.019622803	-0.47380066	-0.029434204	0.0035705566	1.6784668E-4
1430143282831	RAWMAG	40.95764	-32.27539	21.116638	21.839905	-32.939148	70.259094
1430143282923	RAWGYR	0.019866943	0.00680542	-0.4406891	-0.029434204	0.0035705566	1.6784668E-4
1430143282932	RAWMAG	38.14392	-31.922913	21.803284	21.839905	-32.939148	70.259094
1430143283023	RAWGYR	-0.041015625	-0.012420654	-0.5827484	-0.029434204	0.0035705566	1.6784668E-4
1430143283033	RAWMAG	38.4964	-31.21643	20.08667	21.839905	-32.939148	70.259094
1430143283124	RAWGYR	-0.06985474	-0.030578613	-0.708786	-0.029434204	0.0035705566	1.6784668E-4
1430143283133	RAWMAG	36.210632	-31.74591	20.600891	21.839905	-32.939148	70.259094
1430143283225	RAWGYR	-0.032470703	-0.063690186	-0.8284149	-0.029434204	0.0035705566	1.6784668E-4
1430143283234	RAWMAG	35.507202	-31.040955	20.257568	21.839905	-32.939148	70.259094
1430143283325	RAWGYR	-0.050628662	-0.06796265	-0.89356995	-0.029434204	0.0035705566	1.6784668E-4
1430143283334	RAWMAG	33.398438	-31.74591	20.944214	21.839905	-32.939148	70.259094
1430143283425	RAWGYR	-0.049560547	-0.04019165	-0.6041107	-0.029434204	0.0035705566	1.6784668E-4
1430143283435	RAWMAG	32.51953	-32.27539	20.08667	21.839905	-32.939148	70.259094
1430143283527	RAWGYR	-0.032470703	0.02709961	-0.054031372	-0.029434204	0.0035705566	1.6784668E-4
1430143283537	RAWMAG	33.74939	-32.09839	21.632385	21.839905	-32.939148	70.259094
1430143283627	RAWGYR	-0.047424316	0.09011841	0.41593933	-0.029434204	0.0035705566	1.6784668E-4
1430143283637	RAWMAG	36.210632	-32.09839	19.570923	21.839905	-32.939148	70.259094
1430143283728	RAWGYR	0.00491333	0.12109375	0.6188812	-0.029434204	0.0035705566	1.6784668E-4
1430143283737	RAWMAG	35.331726	-30.511475	19.743347	21.839905	-32.939148	70.259094
1430143283829	RAWGYR	-0.0036315918	0.070892334	0.4768219	-0.029434204	0.0035705566	1.6784668E-4
1430143283839	RAWMAG	36.738586	-30.511475	20.429993	21.839905	-32.939148	70.259094
1430143283929	RAWGYR	-0.02178955	-0.04019165	-0.027328491	-0.029434204	0.0035705566	1.6784668E-4
1430143283939	RAWMAG	35.331726	-31.922913	20.429993	21.839905	-32.939148	70.259094
1430143284030	RAWGYR	-0.03353882	-0.1138916	-0.44282532	-0.029434204	0.0035705566	1.6784668E-4
1430143284040	RAWMAG	33.92639	-31.570435	21.803284	21.839905	-32.939148	70.259094
1430143284132	RAWGYR	-0.032470703	-0.108551025	-0.6799469	-0.029434204	0.0035705566	1.6784668E-4
1430143284141	RAWMAG	32.344055	-32.09839	21.287537	21.839905	-32.939148	70.259094
1430143284232	RAWGYR	-0.067718506	-0.043395996	-0.75364685	-0.029434204	0.0035705566	1.6784668E-4
1430143284242	RAWMAG	32.870483	-32.980347	20.08667	21.839905	-32.939148	70.259094
1430143284333	RAWGYR	-0.088012695	0.012145996	-0.7632599	-0.029434204	0.0035705566	1.6784668E-4
1430143284342	RAWMAG	31.465149	-33.68683	21.45996	21.839905	-32.939148	70.259094
1430143284434	RAWGYR	-0.07946777	0.016418457	-0.83055115	-0.029434204	0.0035705566	1.6784668E-4
1430143284443	RAWMAG	29.179382	-33.15735	20.600891	21.839905	-32.939148	70.259094
1430143284534	RAWGYR	-0.063446045	-0.011352539	-0.857254	-0.029434204	0.0035705566	1.6784668E-4
1430143284543	RAWMAG	27.070618	-33.862305	19.914246	21.839905	-32.939148	70.259094
1430143284634	RAWGYR	-0.054901123	-0.034851074	-0.73976135	-0.029434204	0.0035705566	1.6784668E-4
1430143284644	RAWMAG	28.300476	-34.039307	19.056702	21.839905	-32.939148	70.259094
1430143284736	RAWGYR	-0.050628662	-0.032714844	-0.50798035	-0.029434204	0.0035705566	1.6784668E-4
1430143284745	RAWMAG	27.949524	-34.744263	21.803284	21.839905	-32.939148	70.259094
1430143284836	RAWGYR	-0.04849243	0.014282227	-0.21211243	-0.029434204	0.0035705566	1.6784668E-4
1430143284845	RAWMAG	28.300476	-36.1557	21.116638	21.839905	-32.939148	70.259094
1430143284936	RAWGYR	-0.022857666	0.020690918	-0.12666321	-0.029434204	0.0035705566	1.6784668E-4
1430143284946	RAWMAG	26.895142	-36.50818	21.116638	21.839905	-32.939148	70.259094
1430143285037	RAWGYR	0.028411865	-0.06689453	-0.36592102	-0.029434204	0.0035705566	1.6784668E-4
1430143285047	RAWMAG	27.246094	-38.97705	21.803284	21.839905	-32.939148	70.259094
1430143285138	RAWGYR	-0.0463562	-0.104278564	-0.7066498	-0.029434204	0.0035705566	1.6784668E-4
1430143285147	RAWMAG	24.960327	-37.742615	20.944214	21.839905	-32.939148	70.259094
1430143285238	RAWGYR	-0.0741272	-0.059417725	-0.7376251	-0.029434204	0.0035705566	1.6784668E-4
1430143285248	RAWMAG	24.784851	-38.272095	21.803284	21.839905	-32.939148	70.259094
1430143285340	RAWGYR	-0.09442139	-0.039123535	-0.62867737	-0.029434204	0.0035705566	1.6784668E-4
1430143285350	RAWMAG	24.08142	-40.38849	20.08667	21.839905	-32.939148	70.259094
1430143285440	RAWGYR	-0.059173584	-0.07757568	-0.6874237	-0.029434204	0.0035705566	1.6784668E-4
1430143285450	RAWMAG	23.730469	-41.445923	20.08667	21.839905	-32.939148	70.259094
1430143285541	RAWGYR	-0.02178955	-0.12991333	-0.885025	-0.029434204	0.0035705566	1.6784668E-4
1430143285550	RAWMAG	23.379517	-43.914795	23.519897	21.839905	-32.939148	70.259094
1430143285642	RAWGYR	-0.016448975	-0.13204956	-1.0452423	-0.029434204	0.0035705566	1.6784668E-4
1430143285651	RAWMAG	20.918274	-44.973755	21.45996	21.839905	-32.939148	70.259094
1430143285742	RAWGYR	-0.030334473	-0.124572754	-1.1136017	-0.029434204	0.0035705566	1.6784668E-4
1430143285751	RAWMAG	20.742798	-47.26715	23.005676	21.839905	-32.939148	70.259094
1430143285843	RAWGYR	-0.092285156	-0.0786438	-1.1210785	-0.029434204	0.0035705566	1.6784668E-4
1430143285852	RAWMAG	20.742798	-49.02954	23.005676	21.839905	-32.939148	70.259094
1430143285944	RAWGYR	-0.12112427	-0.019897461	-1.0687408	-0.029434204	0.0035705566	1.6784668E-4
1430143285953	RAWMAG	20.565796	-51.322937	21.803284	21.839905	-32.939148	70.259094
1430143286044	RAWGYR	-0.13607788	0.015350342	-0.9384308	-0.029434204	0.0035705566	1.6784668E-4
1430143286054	RAWMAG	20.918274	-53.43933	22.146606	21.839905	-32.939148	70.259094
1430143286145	RAWGYR	-0.11364746	0.013214111	-0.643631	-0.029434204	0.0035705566	1.6784668E-4
1430143286155	RAWMAG	21.444702	-51.852417	21.975708	21.839905	-32.939148	70.259094
1430143286246	RAWGYR	-0.07839966	0.043121338	-0.1255951	-0.029434204	0.0035705566	1.6784668E-4
1430143286255	RAWMAG	21.79718	-52.204895	20.944214	21.839905	-32.939148	70.259094
1430143286346	RAWGYR	-0.032470703	0.10293579	0.42341614	-0.029434204	0.0035705566	1.6784668E-4
1430143286356	RAWMAG	22.50061	-49.383545	20.257568	21.839905	-32.939148	70.259094
1430143286447	RAWGYR	-0.038879395	0.09118652	0.9062042	-0.029434204	0.0035705566	1.6784668E-4
1430143286457	RAWMAG	21.621704	-47.795105	20.429993	21.839905	-32.939148	70.259094
1430143286548	RAWGYR	-0.061309814	0.06661987	1.0439911	-0.029434204	0.0035705566	1.6784668E-4
1430143286558	RAWMAG	21.09375	-46.56067	19.914246	21.839905	-32.939148	70.259094
1430143286649	RAWGYR	-0.051696777	0.052734375	0.8132782	-0.029434204	0.0035705566	1.6784668E-4
1430143286658	RAWMAG	23.027039	-44.621277	21.116638	21.839905	-32.939148	70.259094
1430143286749	RAWGYR	-0.06237793	0.1104126	0.82395935	-0.029434204	0.0035705566	1.6784668E-4
1430143286759	RAWMAG	23.379517	-42.85736	21.116638	21.839905	-32.939148	70.259094
1430143286851	RAWGYR	-0.05596924	0.09866333	0.95961	-0.029434204	0.0035705566	1.6784668E-4
1430143286861	RAWMAG	23.730469	-42.152405	20.773315	21.839905	-32.939148	70.259094
1430143286951	RAWGYR	0.044433594	0.044189453	0.61994934	-0.029434204	0.0035705566	1.6784668E-4
1430143286961	RAWMAG	22.676086	-41.7984	21.116638	21.839905	-32.939148	70.259094
1430143287052	RAWGYR	0.05618286	-0.06048584	-0.064712524	-0.029434204	0.0035705566	1.6784668E-4
1430143287061	RAWMAG	23.379517	-43.914795	21.116638	21.839905	-32.939148	70.259094
1430143287154	RAWGYR	-4.272461E-4	-0.0925293	-0.6169281	-0.029434204	0.0035705566	1.6784668E-4
1430143287164	RAWMAG	21.621704	-45.326233	21.803284	21.839905	-32.939148	70.259094
1430143287253	RAWGYR	-0.038879395	-0.088256836	-0.8903656	-0.029434204	0.0035705566	1.6784668E-4
1430143287263	RAWMAG	22.148132	-46.20819	20.944214	21.839905	-32.939148	70.259094
1430143287353	RAWGYR	-0.05596924	-0.048736572	-1.0302887	-0.029434204	0.0035705566	1.6784668E-4
1430143287363	RAWMAG	21.269226	-48.501587	22.146606	21.839905	-32.939148	70.259094
1430143287455	RAWGYR	-0.029266357	-0.011352539	-1.1274872	-0.029434204	0.0035705566	1.6784668E-4
1430143287464	RAWMAG	22.676086	-49.9115	21.45996	21.839905	-32.939148	70.259094
1430143287556	RAWGYR	-0.034606934	0.0046691895	-1.1969147	-0.029434204	0.0035705566	1.6784668E-4
1430143287565	RAWMAG	21.79718	-51.49994	19.914246	21.839905	-32.939148	70.259094
1430143287656	RAWGYR	-0.045288086	-0.0028076172	-1.1018524	-0.029434204	0.0035705566	1.6784668E-4
1430143287665	RAWMAG	23.202515	-53.96881	22.31903	21.839905	-32.939148	70.259094
1430143287757	RAWGYR	-0.0068359375	-0.014556885	-0.6735382	-0.029434204	0.0035705566	1.6784668E-4
1430143287767	RAWMAG	24.08142	-53.79181	21.803284	21.839905	-32.939148	70.259094
1430143287857	RAWGYR	-0.053833008	0.043121338	0.090164185	-0.029434204	0.0035705566	1.6784668E-4
1430143287867	RAWMAG	23.554993	-53.26233	20.257568	21.839905	-32.939148	70.259094
1430143287958	RAWGYR	-0.11151123	0.099731445	0.7491913	-0.029434204	0.0035705566	1.6784668E-4
1430143287968	RAWMAG	23.027039	-51.322937	21.116638	21.839905	-32.939148	70.259094
1430143288059	RAWGYR	-0.10189819	0.12109375	0.9254303	-0.029434204	0.0035705566	1.6784668E-4
1430143288069	RAWMAG	23.554993	-51.145935	19.914246	21.839905	-32.939148	70.259094
1430143288159	RAWGYR	-0.031402588	0.039916992	0.66374207	-0.029434204	0.0035705566	1.6784668E-4
1430143288169	RAWMAG	23.027039	-49.55902	20.773315	21.839905	-32.939148	70.259094
1430143288260	RAWGYR	-0.0057678223	-0.09466553	0.12007141	-0.029434204	0.0035705566	1.6784668E-4
1430143288270	RAWMAG	21.972656	-50.263977	21.116638	21.839905	-32.939148	70.259094
1430143288361	RAWGYR	0.014526367	-0.14273071	-0.43214417	-0.029434204	0.0035705566	1.6784668E-4
1430143288371	RAWMAG	22.851563	-50.44098	20.944214	21.839905	-32.939148	70.259094
1430143288461	RAWGYR	0.016662598	-0.13739014	-0.7782135	-0.029434204	0.0035705566	1.6784668E-4
1430143288471	RAWMAG	22.148132	-53.96881	21.287537	21.839905	-32.939148	70.259094
1430143288562	RAWGYR	0.018798828	-0.08291626	-0.88822937	-0.029434204	0.0035705566	1.6784668E-4
1430143288572	RAWMAG	23.379517	-56.26068	20.08667	21.839905	-32.939148	70.259094
1430143288663	RAWGYR	-0.013244629	-0.010284424	-0.8006439	-0.029434204	0.0035705566	1.6784668E-4
1430143288673	RAWMAG	23.554993	-56.79016	20.257568	21.839905	-32.939148	70.259094
1430143288764	RAWGYR	-0.023925781	0.048461914	-0.5731354	-0.029434204	0.0035705566	1.6784668E-4
1430143288773	RAWMAG	24.784851	-56.967163	21.803284	21.839905	-32.939148	70.259094
1430143288864	RAWGYR	-0.028198242	0.040985107	-0.4353485	-0.029434204	0.0035705566	1.6784668E-4
1430143288874	RAWMAG	23.554993	-58.554077	20.600891	21.839905	-32.939148	70.259094
