1430121398113	MAG	12.179565	-13.859558	-9.959412
1430121398214	MAG	11.219788	-14.338684	-10.079956
1430121398315	MAG	10.85968	-14.039612	-9.539795
1430121398406	GYR	-0.0045928955	-0.3464203	0.085739136
1430121398415	MAG	10.739136	-13.439941	-9.1796875
1430121398507	GYR	-0.06333923	-0.42546082	-0.014663696
1430121398517	MAG	9.539795	-12.658691	-8.459473
1430121398607	GYR	0.03919983	-0.022781372	-0.19944763
1430121398617	MAG	9.239197	-11.579895	-7.258606
1430121398708	GYR	0.03492737	0.05091858	-0.04777527
1430121398718	MAG	9.118652	-11.219788	-5.758667
1430121398809	GYR	0.008224487	0.04664612	-0.036026
1430121398819	MAG	10.679626	-12.539673	-6.5994263
1430121398910	GYR	-0.16801453	-0.04307556	-0.06059265
1430121398919	MAG	12.11853	-13.798523	-7.1395874
1430121399010	GYR	-0.24064636	-0.35603333	-0.14497375
1430121399020	MAG	14.518738	-15.179443	-10.079956
1430121399111	GYR	-0.35279846	-0.11891174	-0.19090271
1430121399121	MAG	16.918945	-16.558838	-13.619995
1430121399212	GYR	-0.24064636	0.20152283	-0.124679565
1430121399221	MAG	19.918823	-18.23883	-17.459106
1430121399312	GYR	0.12464905	0.04878235	-0.14176941
1430121399322	MAG	22.979736	-20.458984	-21.359253
1430121399413	GYR	0.2122345	-0.82814026	-0.46220398
1430121399423	MAG	25.439453	-23.339844	-25.019836
1430121399514	GYR	0.921463	-1.8278961	-1.472641
1430121399523	MAG	26.759338	-26.818848	-28.199768
1430121399614	GYR	0.5999603	-1.4273529	-1.0154877
1430121399624	MAG	27.119446	-30.718994	-31.318665
1430121399715	GYR	0.8029022	-1.5843658	-0.9556732
1430121399725	MAG	26.278687	-34.199524	-31.13861
1430121399816	GYR	0.88194275	-1.8983917	-1.231247
1430121399825	MAG	23.999023	-38.09967	-26.519775
1430121399917	GYR	0.8071747	-1.9720917	-1.16716
1430121399926	MAG	21.659851	-42.539978	-19.259644
1430121400018	GYR	1.3155975	-1.6815643	-1.4128265
1430121400027	MAG	18.778992	-46.739197	-8.999634
1430121400118	GYR	1.273941	-1.2660675	-1.3380585
1430121400128	MAG	15.478516	-49.739075	3.0593872
1430121400219	GYR	0.8274689	-0.5579071	-0.7228241
1430121400228	MAG	12.838745	-51.838684	15.179443
1430121400320	GYR	0.74842834	0.0947113	-0.40559387
1430121400329	MAG	11.158752	-53.09906	26.69983
1430121400420	GYR	0.3382721	0.10218811	-0.46647644
1430121400430	MAG	10.018921	-53.759766	37.678528
1430121400521	GYR	-0.08470154	0.09577942	-0.10865784
1430121400530	MAG	8.999634	-53.579712	47.158813
1430121400622	GYR	-0.13597107	0.023147583	-0.07661438
1430121400631	MAG	8.639526	-52.738953	54.418945
1430121400723	GYR	-0.47242737	-0.03453064	-0.10758972
1430121400732	MAG	8.21991	-51.59912	59.098816
1430121400834	MAG	8.1588745	-50.639343	60.598755
1430121400915	GYR	-0.047958374	-0.22401428	-0.1315155
1430121400934	MAG	8.879089	-50.639343	60.479736
1430121401016	GYR	0.080215454	-0.15992737	-0.024490356
1430121401036	MAG	9.47876	-50.759888	59.87854
1430121401117	GYR	0.072525024	-0.08024597	-0.053329468
1430121401137	MAG	10.018921	-50.99945	59.399414
1430121401217	GYR	0.15882874	0.009689331	0.06074524
1430121401238	MAG	10.258484	-51.119995	58.979797
1430121401318	GYR	-0.009719849	0.034469604	0.017166138
1430121401339	MAG	10.618591	-51.239014	58.259583
1430121401419	GYR	0.09303284	0.078048706	-0.057174683
1430121401439	MAG	11.039734	-51.239014	57.659912
1430121401519	GYR	0.050735474	-0.024917603	-0.034744263
1430121401539	MAG	11.338806	-51.239014	57.539368
1430121401620	GYR	0.011642456	-0.06529236	0.028915405
1430121401642	MAG	11.338806	-51.119995	57.899475
1430121401721	GYR	0.10926819	-0.055252075	-0.020004272
1430121401742	MAG	11.399841	-50.759888	57.899475
1430121401822	GYR	0.015274048	-0.018081665	0.063949585
1430121401842	MAG	11.279297	-50.45929	58.07953
1430121401922	GYR	0.17720032	-0.027267456	0.009902954
1430121401943	MAG	11.158752	-50.219727	57.899475
1430121402023	GYR	-0.012069702	-0.020004272	-0.011459351
1430121402044	MAG	11.219788	-50.039673	57.958984
1430121402124	GYR	0.012069702	0.04878235	-0.049484253
1430121402144	MAG	11.338806	-49.85962	58.198547
1430121402225	GYR	-0.05970764	0.044509888	-0.03517151
1430121402245	MAG	11.219788	-49.91913	58.6792
1430121402325	GYR	0.018478394	0.043441772	0.014602661
1430121402345	MAG	11.219788	-49.91913	58.859253
1430121402426	GYR	0.016342163	0.072280884	0.0037078857
1430121402446	MAG	11.158752	-49.91913	58.918762
1430121402527	GYR	0.009292603	0.04878235	0.0034942627
1430121402547	MAG	10.978699	-49.798584	58.918762
1430121402627	GYR	-0.0723114	0.015029907	0.14768982
1430121402648	MAG	11.039734	-49.91913	58.799744
1430121402728	GYR	0.08085632	0.06736755	0.08317566
1430121402748	MAG	10.739136	-49.55902	58.61969
1430121402829	GYR	-0.027877808	0.14363098	0.039596558
1430121402850	MAG	10.198975	-49.49951	58.3786
1430121402930	GYR	-0.13169861	-0.007827759	-0.057174683
1430121402950	MAG	9.838867	-49.679565	57.958984
1430121403030	GYR	-0.20368958	-0.032180786	-0.065719604
1430121403051	MAG	9.779358	-49.61853	57.47986
1430121403131	GYR	-0.049240112	-0.00440979	-0.046920776
1430121403152	MAG	9.658813	-49.378967	56.878662
1430121403232	GYR	-0.017410278	-0.03944397	0.03767395
1430121403252	MAG	9.359741	-49.139404	56.399536
1430121403333	GYR	0.01890564	0.029129028	-0.0065460205
1430121403353	MAG	9.1796875	-49.319458	56.159973
1430121403433	GYR	0.014846802	-0.0074005127	-0.028121948
1430121403454	MAG	8.639526	-49.25995	55.859375
1430121403534	GYR	-0.03514099	0.029342651	0.021011353
1430121403555	MAG	8.639526	-49.55902	55.558777
1430121403635	GYR	-0.082351685	0.09172058	0.04408264
1430121403656	MAG	8.938599	-49.378967	55.319214
1430121403735	GYR	-0.08085632	0.099624634	0.019088745
1430121403757	MAG	8.758545	-49.01886	55.13916
1430121403836	GYR	-0.047958374	0.057540894	-0.0071868896
1430121403857	MAG	8.578491	-48.838806	54.779053
1430121403937	GYR	-0.04069519	0.009262085	-0.015945435
1430121403957	MAG	8.459473	-49.139404	54.65851
1430121404038	GYR	-0.021896362	-0.0024871826	-0.009750366
1430121404059	MAG	8.518982	-49.319458	54.299927
1430121404138	GYR	0.01399231	0.0028533936	-0.0061187744
1430121404159	MAG	8.459473	-49.319458	53.878784
1430121404239	GYR	0.010147095	-0.005264282	0.008621216
1430121404259	MAG	8.699036	-49.139404	53.69873
1430121404340	GYR	0.036209106	-0.017440796	0.018234253
1430121404361	MAG	8.518982	-49.198914	53.579712
1430121404440	GYR	0.012069702	0.0077667236	0.03126526
1430121404461	MAG	8.399963	-49.49951	53.39966
1430121404559	MAG	8.578491	-49.319458	52.919006
1430121404651	GYR	-0.2780304	-1.4796906	-0.21440125
1430121404660	MAG	9.539795	-49.438477	52.859497
1430121404751	GYR	-0.3335724	-2.6823883	-0.55085754
1430121404761	MAG	10.798645	-49.319458	52.49939
1430121404852	GYR	-0.76615906	-1.9368439	-0.4493866
1430121404862	MAG	12.059021	-49.49951	52.018738
1430121404953	GYR	-0.56962585	-0.07725525	-0.16847229
1430121404963	MAG	13.198853	-49.55902	51.35956
1430121405054	GYR	-0.22996521	1.2546844	0.09428406
1430121405064	MAG	14.219666	-49.85962	50.45929
1430121405154	GYR	0.23680115	0.98765564	0.2577057
1430121405164	MAG	14.93988	-49.85962	49.85962
1430121405255	GYR	0.46003723	-0.20436096	0.29188538
1430121405264	MAG	15.779114	-49.679565	49.85962
1430121405356	GYR	0.5914154	-0.9071808	0.18507385
1430121405365	MAG	16.738892	-50.099182	50.579834
1430121405456	GYR	0.39167786	-0.53974915	0.049423218
1430121405466	MAG	16.619873	-49.978638	50.99945
1430121405557	GYR	0.058425903	0.24104309	-0.06593323
1430121405566	MAG	16.378784	-50.039673	51.298523
1430121405658	GYR	-0.35279846	0.5433197	-0.17915344
1430121405667	MAG	16.19873	-49.739075	51.298523
1430121405758	GYR	-0.5461273	0.14277649	-0.25605774
1430121405768	MAG	16.319275	-49.798584	51.298523
1430121405859	GYR	-0.53544617	-0.34535217	-0.19303894
1430121405868	MAG	16.499329	-49.739075	51.478577
1430121405960	GYR	-0.22569275	-0.37953186	-0.014663696
1430121405969	MAG	16.97998	-49.91913	51.53961
1430121406061	GYR	0.18659973	0.0103302	0.16905212
1430121406070	MAG	17.098999	-49.91913	51.179504
1430121406161	GYR	0.5198517	0.34358215	0.2587738
1430121406171	MAG	16.738892	-49.61853	50.639343
1430121406262	GYR	0.5550995	0.26454163	0.20429993
1430121406272	MAG	16.679382	-49.49951	50.39978
1430121406362	GYR	0.3660431	-0.09648132	0.025924683
1430121406372	MAG	16.619873	-49.139404	50.759888
1430121406463	GYR	0.0018157959	-0.3271942	-0.15779114
1430121406473	MAG	16.558838	-49.139404	50.99945
1430121406564	GYR	-0.36134338	-0.1926117	-0.22080994
1430121406574	MAG	16.558838	-49.079895	51.419067
1430121406665	GYR	-0.5365143	0.08616638	-0.15885925
1430121406674	MAG	16.43982	-49.198914	51.239014
1430121406765	GYR	-0.44145203	0.16734314	-0.03816223
1430121406775	MAG	16.499329	-49.25995	50.759888
1430121406867	GYR	-0.16801453	0.03062439	0.08894348
1430121406876	MAG	16.558838	-49.49951	50.5188
1430121406967	GYR	0.198349	-0.09861755	0.16905212
1430121406976	MAG	16.679382	-49.739075	50.338745
1430121407067	GYR	0.47712708	-0.048416138	0.16798401
1430121407077	MAG	16.738892	-49.91913	49.978638
1430121407169	GYR	0.5059662	0.06480408	0.087875366
1430121407178	MAG	16.378784	-49.978638	49.85962
1430121407269	GYR	0.30729675	0.047714233	-0.042434692
1430121407279	MAG	16.558838	-49.739075	50.15869
1430121407370	GYR	-0.030227661	-0.0879364	-0.15779114
1430121407379	MAG	16.43982	-49.55902	50.39978
1430121407471	GYR	-0.3634796	-0.14668274	-0.17915344
1430121407480	MAG	16.499329	-49.55902	50.698853
1430121407571	GYR	-0.49699402	-0.05909729	-0.09690857
1430121407581	MAG	16.259766	-49.49951	50.819397
1430121407672	GYR	-0.38697815	0.054122925	0.029129028
1430121407681	MAG	16.19873	-49.25995	50.759888
1430121407773	GYR	-0.1028595	0.082962036	0.12846375
1430121407783	MAG	16.259766	-49.319458	50.639343
1430121407874	GYR	0.22932434	0.027420044	0.15623474
1430121407883	MAG	16.378784	-49.319458	50.45929
1430121407974	GYR	0.457901	-0.025985718	0.103897095
1430121407984	MAG	16.619873	-49.378967	50.279236
1430121408075	GYR	0.44828796	-0.04093933	0.0024261475
1430121408085	MAG	16.259766	-49.378967	50.099182
1430121408176	GYR	0.2400055	-0.048416138	-0.0990448
1430121408185	MAG	16.139221	-49.438477	50.219727
1430121408276	GYR	-0.08149719	-0.06123352	-0.14497375
1430121408286	MAG	16.19873	-49.25995	50.5188
1430121408377	GYR	-0.36454773	-0.039871216	-0.10865784
1430121408387	MAG	16.43982	-49.139404	50.759888
1430121408478	GYR	-0.45213318	0.0017852783	-0.017868042
1430121408487	MAG	16.43982	-49.198914	50.698853
1430121408578	GYR	-0.32395935	0.027420044	0.0761261
1430121408588	MAG	16.378784	-49.139404	50.45929
1430121408679	GYR	-0.043045044	0.02848816	0.1252594
1430121408689	MAG	16.619873	-49.139404	50.338745
1430121408780	GYR	0.25709534	0.014602661	0.108169556
1430121408789	MAG	16.499329	-49.139404	50.15869
1430121408880	GYR	0.4365387	-0.0056915283	0.034469604
1430121408890	MAG	16.499329	-49.139404	50.338745
1430121408981	GYR	0.39060974	-0.037734985	-0.05418396
1430121408991	MAG	16.619873	-49.139404	50.45929
1430121409082	GYR	0.17271423	-0.06977844	-0.11399841
1430121409091	MAG	16.619873	-48.95935	50.338745
1430121409183	GYR	-0.13169861	-0.0665741	-0.10758972
1430121409192	MAG	16.679382	-49.01886	50.5188
1430121409284	GYR	-0.3634796	-0.009963989	-0.040298462
1430121409295	MAG	16.619873	-49.01886	50.759888
1430121409385	GYR	-0.4051361	0.042373657	0.04408264
1430121409395	MAG	16.799927	-49.01886	50.698853
1430121409485	GYR	-0.2566681	0.044509888	0.099624634
1430121409495	MAG	16.558838	-49.139404	50.579834
1430121409586	GYR	0.2827301	-0.015304565	0.046218872
1430121409596	MAG	16.679382	-49.319458	50.639343
1430121409697	MAG	17.03949	-49.438477	50.39978
1430121409779	GYR	0.30451965	-0.04307556	-0.093063354
1430121409798	MAG	16.97998	-49.438477	50.39978
1430121409879	GYR	0.031295776	-0.054397583	-0.093063354
1430121409900	MAG	16.918945	-49.61853	50.639343
1430121409980	GYR	-0.25837708	-0.026626587	-0.032180786
1430121410001	MAG	16.918945	-49.61853	50.819397
1430121410081	GYR	-0.3901825	0.027633667	0.044937134
1430121410101	MAG	17.098999	-49.679565	50.99945
1430121410181	GYR	-0.32331848	0.052627563	0.09172058
1430121410202	MAG	16.97998	-49.55902	51.119995
1430121410282	GYR	-0.109695435	0.031692505	0.08616638
1430121410303	MAG	17.03949	-49.739075	50.93994
1430121410383	GYR	0.16523743	-0.009109497	0.034469604
1430121410403	MAG	17.158508	-49.61853	50.5188
1430121410483	GYR	0.3577118	-0.03666687	-0.034744263
1430121410505	MAG	16.799927	-49.49951	50.5188
1430121410584	GYR	0.36561584	-0.04585266	-0.08345032
1430121410605	MAG	16.859436	-49.438477	50.338745
1430121410685	GYR	0.2058258	-0.044143677	-0.087509155
1430121410705	MAG	16.799927	-49.378967	50.39978
1430121410785	GYR	-0.052230835	-0.02619934	-0.043502808
1430121410806	MAG	16.738892	-49.079895	50.759888
1430121410886	GYR	-0.28016663	0.009902954	0.024642944
1430121410906	MAG	16.679382	-49.01886	50.819397
1430121410987	GYR	-0.36112976	0.038101196	0.075912476
1430121411007	MAG	16.738892	-49.01886	51.05896
1430121411088	GYR	-0.2632904	0.039596558	0.082962036
1430121411109	MAG	16.679382	-48.89984	51.179504
1430121411188	GYR	-0.04069519	0.014602661	0.044937134
1430121411208	MAG	16.738892	-48.89984	51.179504
1430121411289	GYR	0.20603943	-0.020217896	-0.018081665
1430121411309	MAG	16.799927	-49.25995	51.05896
1430121411390	GYR	0.35002136	-0.045425415	-0.069992065
1430121411411	MAG	16.738892	-49.139404	50.93994
1430121411490	GYR	0.3143463	-0.049697876	-0.08366394
1430121411511	MAG	16.738892	-49.01886	50.759888
1430121411591	GYR	0.1381073	-0.031967163	-0.052261353
1430121411612	MAG	16.738892	-49.079895	50.39978
1430121411692	GYR	-0.1056366	0.0026397705	0.008834839
1430121411714	MAG	16.679382	-49.01886	50.5188
1430121411793	GYR	-0.29405212	0.031692505	0.06309509
1430121411813	MAG	16.679382	-48.95935	50.639343
1430121411893	GYR	-0.32481384	0.038101196	0.07975769
1430121411915	MAG	16.738892	-48.89984	50.93994
1430121411994	GYR	-0.20176697	0.022506714	0.05241394
1430121412015	MAG	16.679382	-48.95935	50.99945
1430121412095	GYR	0.023605347	-0.0031280518	-0.0027008057
1430121412115	MAG	16.799927	-48.95935	50.698853
1430121412196	GYR	0.23893738	-0.03111267	-0.056747437
1430121412215	MAG	16.799927	-49.139404	50.5188
1430121412296	GYR	0.33143616	-0.047348022	-0.07939148
1430121412316	MAG	16.859436	-49.139404	50.45929
1430121412397	GYR	0.2613678	-0.038589478	-0.059524536
1430121412417	MAG	16.859436	-49.139404	50.5188
1430121412498	GYR	0.07209778	-0.010604858	-0.0069732666
1430121412518	MAG	16.859436	-48.89984	50.579834
1430121412599	GYR	-0.15135193	0.022506714	0.048568726
1430121412619	MAG	17.03949	-49.01886	50.639343
1430121412699	GYR	-0.29768372	0.03916931	0.07463074
1430121412720	MAG	17.158508	-49.079895	50.759888
1430121412800	GYR	-0.28401184	0.027420044	0.057754517
1430121412820	MAG	17.03949	-48.89984	50.819397
1430121412901	GYR	-0.1381073	0.0066986084	0.009689331
1430121412922	MAG	16.738892	-48.779297	50.698853
1430121413001	GYR	0.080215454	-0.017868042	-0.043289185
1430121413022	MAG	16.918945	-48.89984	50.45929
1430121413102	GYR	0.26158142	-0.038589478	-0.07447815
1430121413122	MAG	16.97998	-48.95935	50.219727
1430121413203	GYR	0.30387878	-0.039657593	-0.06465149
1430121413224	MAG	17.098999	-49.079895	50.099182
1430121413303	GYR	0.20689392	-0.020431519	-0.020858765
1430121413323	MAG	17.338562	-49.378967	50.099182
1430121413423	MAG	17.279053	-49.079895	50.279236
1430121413514	GYR	-0.017410278	0.015670776	0.04408264
1430121413524	MAG	17.279053	-49.139404	50.099182
1430121413614	GYR	-0.1947174	0.031692505	0.06864929
1430121413624	MAG	17.459106	-49.198914	50.099182
1430121413715	GYR	-0.28016663	0.031692505	0.0622406
1430121413725	MAG	17.57965	-49.438477	50.338745
1430121413816	GYR	-0.2363739	0.013534546	0.024856567
1430121413826	MAG	17.57965	-49.438477	50.39978
1430121413917	GYR	-0.08256531	-0.0056915283	-0.025344849
1430121413926	MAG	17.57965	-49.61853	50.45929
1430121414017	GYR	0.11717224	-0.024917603	-0.061660767
1430121414027	MAG	17.459106	-49.798584	50.279236
1430121414118	GYR	0.25709534	-0.037734985	-0.06486511
1430121414128	MAG	17.399597	-49.91913	50.15869
1430121414219	GYR	0.26670837	-0.028121948	-0.032821655
1430121414228	MAG	17.219543	-49.978638	49.91913
1430121414319	GYR	0.15135193	-0.0035552979	0.016311646
1430121414329	MAG	17.338562	-49.85962	49.978638
1430121414421	GYR	-0.20219421	0.03062439	0.063308716
1430121414431	MAG	17.219543	-49.85962	50.279236
1430121414521	GYR	-0.26200867	0.019943237	0.03340149
1430121414531	MAG	17.459106	-49.739075	50.219727
1430121414622	GYR	-0.18937683	-3.5095215E-4	-0.013595581
1430121414631	MAG	17.518616	-49.679565	50.219727
1430121414724	GYR	-0.022750854	-0.01637268	-0.053115845
1430121414733	MAG	17.57965	-49.679565	50.099182
1430121414824	GYR	0.15562439	-0.028121948	-0.063797
1430121414833	MAG	17.518616	-49.55902	50.219727
1430121414925	GYR	0.25602722	-0.028121948	-0.041366577
1430121414935	MAG	17.279053	-49.49951	50.219727
1430121415025	GYR	0.22825623	-0.013168335	0.0034942627
1430121415036	MAG	17.57965	-49.49951	50.39978
1430121415126	GYR	0.09474182	0.009262085	0.046218872
1430121415136	MAG	17.338562	-49.378967	50.698853
1430121415227	GYR	-0.08470154	0.024215698	0.061172485
1430121415236	MAG	17.279053	-49.319458	50.698853
1430121415328	GYR	-0.21714783	0.022079468	0.04194641
1430121415338	MAG	17.219543	-49.139404	50.93994
1430121415427	GYR	-0.23530579	0.0060577393	-0.0018463135
1430121415437	MAG	17.158508	-49.01886	51.05896
1430121415528	GYR	-0.13597107	-0.0110321045	-0.043502808
1430121415538	MAG	17.098999	-48.95935	50.93994
1430121415629	GYR	0.030654907	-0.021713257	-0.061660767
1430121415639	MAG	17.279053	-48.779297	50.93994
1430121415729	GYR	0.1844635	-0.023849487	-0.046707153
1430121415739	MAG	17.338562	-48.658752	50.759888
1430121415830	GYR	0.24427795	-0.01637268	-0.0071868896
1430121415840	MAG	17.459106	-48.599243	50.39978
1430121415931	GYR	0.18553162	7.171631E-4	0.03553772
1430121415941	MAG	17.399597	-48.719788	50.5188
1430121416032	GYR	0.03919983	0.016738892	0.05796814
1430121416042	MAG	17.518616	-48.89984	50.639343
1430121416132	GYR	-0.12315369	0.021011353	0.047286987
1430121416142	MAG	17.338562	-48.779297	50.639343
1430121416234	GYR	-0.22035217	0.011398315	0.009902954
1430121416243	MAG	17.338562	-48.838806	50.579834
1430121416334	GYR	-0.2011261	-0.0067596436	-0.032821655
1430121416343	MAG	17.219543	-48.779297	50.698853
1430121416434	GYR	-0.08363342	-0.017440796	-0.057388306
1430121416444	MAG	17.338562	-48.89984	50.338745
1430121416536	GYR	0.07658386	-0.019577026	-0.050979614
1430121416545	MAG	17.459106	-48.95935	50.219727
1430121416636	GYR	0.20048523	-0.015304565	-0.017868042
1430121416646	MAG	17.399597	-49.01886	50.279236
1430121416737	GYR	0.22184753	-0.004623413	0.024856567
1430121416746	MAG	17.63916	-48.95935	50.039673
1430121416838	GYR	0.13746643	0.009262085	0.05369568
1430121416847	MAG	17.69867	-48.95935	50.039673
1430121416938	GYR	-0.012069702	0.014602661	0.050491333
1430121416948	MAG	17.759705	-49.198914	50.338745
1430121417039	GYR	-0.1519928	0.011398315	0.020584106
1430121417049	MAG	17.69867	-49.198914	50.39978
1430121417140	GYR	-0.21073914	-3.5095215E-4	-0.022140503
1430121417150	MAG	17.518616	-49.01886	50.579834
1430121417240	GYR	-0.16053772	-0.01423645	-0.05204773
1430121417250	MAG	17.338562	-49.079895	50.639343
1430121417341	GYR	-0.031295776	-0.019577026	-0.05418396
1430121417351	MAG	17.219543	-49.378967	50.698853
1430121417443	GYR	0.11503601	-0.015304565	-0.02748108
1430121417453	MAG	17.158508	-49.378967	50.579834
1430121417543	GYR	0.2058258	-0.0035552979	0.014175415
1430121417553	MAG	17.03949	-49.49951	50.5188
1430121417644	GYR	0.19087219	0.00819397	0.047286987
1430121417654	MAG	17.158508	-49.378967	50.45929
1430121417744	GYR	0.08833313	0.011398315	0.052627563
1430121417754	MAG	17.338562	-49.438477	50.39978
1430121417845	GYR	-0.056930542	0.0071258545	0.029129028
1430121417854	MAG	17.279053	-49.49951	50.39978
1430121417945	GYR	-0.17015076	7.171631E-4	-0.010391235
1430121417955	MAG	17.338562	-49.55902	50.338745
1430121418046	GYR	-0.19151306	-0.008895874	-0.044570923
1430121418056	MAG	17.338562	-49.49951	50.279236
1430121418146	GYR	-0.116744995	-0.01637268	-0.055252075
1430121418156	MAG	17.338562	-49.25995	50.15869
1430121418247	GYR	0.01676941	-0.01423645	-0.034957886
1430121418256	MAG	17.399597	-49.378967	50.279236
1430121418348	GYR	0.14494324	-0.0056915283	0.0024261475
1430121418358	MAG	17.518616	-49.438477	50.15869
1430121418459	MAG	17.57965	-49.49951	50.15869
1430121418541	GYR	0.117385864	0.009475708	0.05091858
1430121418560	MAG	17.459106	-49.55902	50.099182
1430121418641	GYR	-0.018051147	0.0015716553	0.02357483
1430121418661	MAG	17.69867	-49.55902	50.279236
1430121418742	GYR	-0.14067078	-0.00440979	-0.016159058
1430121418762	MAG	17.69867	-49.739075	50.5188
1430121418843	GYR	-0.18638611	-0.007827759	-0.046920776
1430121418863	MAG	17.459106	-49.679565	50.639343
1430121418944	GYR	-0.13768005	-0.01210022	-0.053115845
1430121418964	MAG	17.338562	-49.739075	50.878906
1430121419044	GYR	-0.019119263	-0.013381958	-0.03175354
1430121419065	MAG	17.279053	-49.55902	50.579834
1430121419145	GYR	0.11012268	-0.003768921	0.0075531006
1430121419166	MAG	17.158508	-49.49951	50.5188
1430121419246	GYR	0.18659973	0.0069122314	0.040023804
1430121419267	MAG	16.97998	-49.55902	50.45929
1430121419347	GYR	0.16609192	0.010971069	0.05091858
1430121419367	MAG	17.098999	-49.378967	50.279236
1430121419447	GYR	0.070388794	0.005203247	0.032546997
1430121419468	MAG	16.859436	-49.378967	50.219727
1430121419548	GYR	-0.05821228	-0.0065460205	-0.0035552979
1430121419569	MAG	16.918945	-49.378967	50.279236
1430121419649	GYR	-0.15583801	-0.009536743	-0.038589478
1430121419669	MAG	17.03949	-49.378967	50.15869
1430121419749	GYR	-0.16011047	-0.011245728	-0.05055237
1430121419770	MAG	17.098999	-49.319458	50.099182
1430121419850	GYR	-0.07551575	-0.0110321045	-0.03175354
1430121419872	MAG	17.03949	-49.61853	50.279236
1430121419951	GYR	0.050094604	-0.005264282	0.0032806396
1430121419972	MAG	17.098999	-49.61853	50.279236
1430121420052	GYR	0.15156555	0.0062713623	0.035324097
1430121420072	MAG	17.219543	-49.378967	50.15869
1430121420152	GYR	0.17549133	0.012039185	0.047927856
1430121420172	MAG	16.918945	-49.49951	50.279236
1430121420253	GYR	0.115249634	0.004989624	0.03340149
1430121420275	MAG	16.799927	-49.438477	50.39978
1430121420354	GYR	0.0013885498	-0.0063323975	-5.645752E-4
1430121420376	MAG	16.918945	-49.319458	50.45929
1430121420454	GYR	-0.111190796	-0.013381958	-0.03303528
1430121420477	MAG	17.03949	-49.319458	50.759888
1430121420555	GYR	-0.16288757	-0.010818481	-0.046707153
1430121420576	MAG	17.158508	-49.198914	50.759888
1430121420656	GYR	-0.129776	-0.0069732666	-0.035812378
1430121420677	MAG	17.279053	-49.139404	50.759888
1430121420757	GYR	-0.031082153	-0.005264282	-0.0063323975
1430121420779	MAG	17.219543	-49.139404	50.759888
1430121420857	GYR	0.08470154	9.3078613E-4	0.025497437
1430121420878	MAG	17.279053	-49.319458	50.878906
1430121420958	GYR	0.16075134	0.007980347	0.042800903
1430121420978	MAG	17.459106	-49.079895	50.759888
1430121421059	GYR	0.1539154	0.0077667236	0.035964966
1430121421080	MAG	17.819214	-49.01886	50.579834
1430121421159	GYR	0.076156616	-0.0022735596	0.008621216
1430121421179	MAG	17.759705	-49.139404	50.45929
1430121421260	GYR	-0.038772583	-0.01423645	-0.022994995
1430121421280	MAG	17.63916	-49.319458	50.45929
1430121421361	GYR	-0.13084412	-0.014877319	-0.04222107
1430121421381	MAG	17.399597	-49.25995	50.579834
1430121421461	GYR	-0.15049744	-0.008255005	-0.037521362
1430121421482	MAG	17.338562	-49.139404	50.45929
1430121421562	GYR	-0.094955444	-0.0033416748	-0.01423645
1430121421583	MAG	17.279053	-49.079895	50.39978
1430121421663	GYR	0.011428833	9.3078613E-4	0.0158844
1430121421684	MAG	17.459106	-48.89984	49.978638
1430121421764	GYR	0.1131134	0.005630493	0.03617859
1430121421784	MAG	17.399597	-48.95935	49.978638
1430121421865	GYR	0.15840149	0.0071258545	0.03617859
1430121421885	MAG	17.279053	-49.01886	50.039673
1430121421965	GYR	0.12550354	2.89917E-4	0.015670776
1430121421986	MAG	17.338562	-48.89984	50.219727
1430121422066	GYR	0.0342865	-0.010391235	-0.013381958
1430121422088	MAG	17.459106	-48.719788	50.15869
1430121422186	MAG	17.518616	-48.838806	50.099182
1430121422277	GYR	-0.09324646	-0.017440796	-0.042434692
1430121422287	MAG	17.57965	-48.89984	50.219727
1430121422377	GYR	-0.14024353	-0.008895874	-0.036026
1430121422387	MAG	17.819214	-48.838806	50.5188
1430121422478	GYR	-0.13169861	-0.0035552979	-0.020004272
1430121422487	MAG	17.878723	-49.139404	50.639343
1430121422579	GYR	-0.06333923	-3.5095215E-4	0.005630493
1430121422589	MAG	17.939758	-49.198914	50.639343
1430121422679	GYR	0.038131714	0.003921509	0.026992798
1430121422689	MAG	17.819214	-49.079895	50.639343
1430121422780	GYR	0.12358093	0.0060577393	0.03340149
1430121422789	MAG	17.69867	-49.139404	50.45929
1430121422881	GYR	0.14494324	0.0017852783	0.020584106
1430121422891	MAG	17.819214	-49.25995	50.5188
1430121422981	GYR	0.09794617	-0.007827759	-0.0029144287
1430121422992	MAG	18.23883	-49.378967	50.759888
1430121423082	GYR	0.0039520264	-0.015304565	-0.025344849
1430121423091	MAG	18.359375	-49.25995	50.759888
1430121423183	GYR	-0.090042114	-0.013168335	-0.032821655
1430121423193	MAG	18.299866	-49.25995	50.579834
1430121423283	GYR	-0.13276672	-0.0035552979	-0.021072388
1430121423293	MAG	18.359375	-49.139404	50.639343
1430121423385	GYR	-0.10713196	0.0017852783	2.89917E-4
1430121423394	MAG	18.299866	-48.95935	50.579834
1430121423486	GYR	-0.0259552	0.0028533936	0.020584106
1430121423495	MAG	18.418884	-49.25995	50.579834
1430121423585	GYR	0.071243286	0.0028533936	0.028060913
1430121423595	MAG	18.418884	-49.319458	50.5188
1430121423686	GYR	0.13426208	0.0028533936	0.020584106
1430121423696	MAG	18.119812	-49.25995	50.5188
1430121423787	GYR	0.062698364	-0.013168335	-0.018936157
1430121423797	MAG	17.759705	-49.139404	50.39978
1430121423888	GYR	-0.03236389	-0.015304565	-0.028549194
1430121423897	MAG	17.518616	-49.378967	50.39978
1430121423988	GYR	-0.10820007	-0.007827759	-0.021072388
1430121423998	MAG	17.399597	-49.319458	50.338745
1430121424089	GYR	-0.1242218	0.0017852783	-0.0029144287
1430121424099	MAG	17.158508	-49.198914	50.39978
1430121424190	GYR	-0.07722473	0.004989624	0.016311646
1430121424199	MAG	17.158508	-49.438477	50.45929
1430121424290	GYR	0.012496948	0.003921509	0.024856567
1430121424300	MAG	17.219543	-49.378967	50.219727
1430121424392	GYR	0.09687805	7.171631E-4	0.019515991
1430121424401	MAG	17.399597	-49.319458	50.15869
1430121424492	GYR	0.13319397	-0.004623413	0.0034942627
1430121424501	MAG	17.57965	-49.378967	50.099182
1430121424593	GYR	0.10542297	-0.01210022	-0.014663696
1430121424602	MAG	17.57965	-49.25995	50.039673
1430121424694	GYR	0.026382446	-0.015304565	-0.024276733
1430121424703	MAG	17.819214	-49.25995	50.15869
1430121424795	GYR	-0.06227112	-0.008895874	-0.020004272
1430121424804	MAG	17.939758	-49.378967	50.39978
1430121424896	GYR	-0.116744995	0.0017852783	-0.005050659
1430121424905	MAG	17.819214	-49.55902	50.5188
1430121424996	GYR	-0.10713196	0.0060577393	0.012039185
1430121425005	MAG	17.819214	-49.378967	50.338745
1430121425097	GYR	-0.043045044	0.003921509	0.021652222
1430121425107	MAG	17.69867	-49.378967	50.219727
1430121425197	GYR	0.04560852	7.171631E-4	0.018447876
1430121425206	MAG	17.518616	-49.378967	50.279236
1430121425298	GYR	0.11289978	-0.0035552979	0.004562378
1430121425307	MAG	17.459106	-49.25995	50.279236
1430121425398	GYR	0.12251282	-0.009963989	-0.011459351
1430121425407	MAG	17.399597	-49.198914	50.279236
1430121425499	GYR	0.07444763	-0.01423645	-0.021072388
1430121425509	MAG	17.158508	-49.01886	50.279236
1430121425600	GYR	-0.008865356	-0.01210022	-0.018936157
1430121425610	MAG	16.918945	-48.89984	50.219727
1430121425700	GYR	-0.08576965	-0.0024871826	-0.0061187744
1430121425710	MAG	16.97998	-48.719788	50.338745
1430121425801	GYR	-0.114608765	0.0060577393	0.008834839
1430121425811	MAG	17.03949	-48.89984	50.39978
1430121425903	GYR	-0.08363342	0.0071258545	0.018447876
1430121425913	MAG	16.918945	-48.95935	50.579834
1430121426003	GYR	-0.007797241	0.0017852783	0.016311646
1430121426012	MAG	17.158508	-48.95935	50.5188
1430121426104	GYR	0.07337952	-0.0035552979	0.005630493
1430121426113	MAG	17.219543	-48.89984	50.338745
1430121426205	GYR	0.11824036	-0.008895874	-0.00932312
1430121426215	MAG	17.338562	-48.719788	50.39978
1430121426305	GYR	0.10542297	-0.01210022	-0.018936157
1430121426314	MAG	17.158508	-48.779297	50.39978
1430121426406	GYR	0.04133606	-0.0110321045	-0.017868042
1430121426415	MAG	17.279053	-48.779297	50.45929
1430121426507	GYR	-0.0398407	-0.0056915283	-0.0071868896
1430121426517	MAG	17.219543	-48.779297	50.39978
1430121426607	GYR	-0.098587036	0.003921509	0.0077667236
1430121426616	MAG	17.219543	-48.719788	50.5188
1430121426707	GYR	-0.1028595	0.00819397	0.01737976
1430121426717	MAG	17.459106	-48.838806	50.5188
1430121426809	GYR	-0.053726196	0.004989624	0.016311646
1430121426818	MAG	17.219543	-48.89984	50.579834
1430121426909	GYR	0.026382446	-0.0024871826	0.005630493
1430121426919	MAG	17.158508	-48.89984	50.5188
1430121427010	GYR	0.093673706	-0.008895874	-0.0071868896
1430121427019	MAG	17.03949	-49.079895	50.45929
1430121427111	GYR	0.11503601	-0.013168335	-0.016799927
1430121427120	MAG	17.098999	-49.25995	50.279236
1430121427222	MAG	17.03949	-49.139404	50.279236
1430121427303	GYR	-0.031295776	-0.0018463135	-0.0012054443
1430121427323	MAG	17.03949	-49.198914	50.279236
1430121427404	GYR	-0.092178345	0.004776001	0.0116119385
1430121427424	MAG	17.03949	-49.139404	50.338745
1430121427505	GYR	-0.10221863	0.0077667236	0.016952515
1430121427526	MAG	17.098999	-48.95935	50.279236
1430121427605	GYR	-0.059066772	0.0032806396	0.012680054
1430121427626	MAG	17.279053	-48.838806	50.099182
1430121427706	GYR	0.016555786	-0.003768921	5.0354004E-4
1430121427727	MAG	17.338562	-48.838806	50.099182
1430121427807	GYR	0.08576965	-0.009536743	-0.012954712
1430121427827	MAG	17.338562	-48.838806	50.039673
1430121427908	GYR	0.111831665	-0.013381958	-0.01914978
1430121427928	MAG	17.338562	-48.719788	49.91913
1430121428008	GYR	0.0834198	-0.0110321045	-0.014022827
1430121428029	MAG	17.57965	-48.89984	49.91913
1430121428109	GYR	0.015274048	-0.0018463135	-0.0027008057
1430121428129	MAG	17.57965	-48.89984	49.978638
1430121428210	GYR	-0.057357788	0.005844116	0.009902954
1430121428229	MAG	17.338562	-48.838806	50.099182
1430121428310	GYR	-0.09815979	0.008407593	0.01524353
1430121428331	MAG	17.03949	-48.95935	50.15869
1430121428411	GYR	-0.08320618	0.0034942627	0.012252808
1430121428432	MAG	16.799927	-48.838806	50.099182
1430121428512	GYR	-0.3948822	0.8470917	0.14491272
1430121428532	MAG	16.558838	-49.079895	50.219727
1430121428612	GYR	0.007583618	0.36131287	0.2698822
1430121428633	MAG	15.9591675	-49.55902	50.698853
1430121428714	GYR	-1.0092621	0.93125916	2.154892
1430121428735	MAG	14.279175	-49.438477	50.5188
1430121428814	GYR	-1.8308563	1.9064484	3.776291
1430121428835	MAG	11.279297	-47.579956	48.35968
1430121428915	GYR	-1.338028	2.6396027	3.6126556
1430121428936	MAG	8.099365	-43.559265	44.519043
1430121429015	GYR	-1.1985321	2.791275	2.8201141
1430121429036	MAG	6.77948	-39.538574	39.538574
1430121429116	GYR	0.5219879	2.0621796	1.3845673
1430121429137	MAG	6.4193726	-35.81848	34.318542
1430121429217	GYR	-0.13661194	-9.918213E-4	0.7481842
1430121429238	MAG	6.059265	-31.97937	29.399109
1430121429317	GYR	0.32096863	0.020370483	-0.0024871826
1430121429337	MAG	6.1798096	-27.83966	24.058533
1430121429418	GYR	0.06718445	1.2527618	0.80244446
1430121429439	MAG	7.739258	-23.098755	17.459106
1430121429519	GYR	-0.48161316	0.2818451	0.44740295
1430121429539	MAG	11.039734	-18.659973	10.919189
1430121429619	GYR	-0.1325531	0.46064758	0.42134094
1430121429640	MAG	15.478516	-15.7196045	6.1798096
1430121429720	GYR	-0.060562134	0.35725403	0.20237732
1430121429740	MAG	20.098877	-14.878845	3.479004
1430121429821	GYR	0.26478577	0.100479126	0.12098694
1430121429841	MAG	23.2193	-14.338684	1.7990112
1430121429922	GYR	0.2763214	0.09812927	0.024642944
1430121429942	MAG	25.138855	-13.319397	0.35858154
1430121430022	GYR	-0.019546509	0.09492493	-0.020858765
1430121430043	MAG	27.359009	-12.779236	-1.2588501
1430121430123	GYR	-0.51600647	0.3264923	0.03062439
1430121430143	MAG	29.039001	-11.759949	-2.279663
1430121430224	GYR	-0.2502594	0.55485535	0.03211975
1430121430244	MAG	29.759216	-11.039734	-2.1591187
